<svg width="44" height="46" viewBox="0 0 44 46" fill="none" xmlns="http://www.w3.org/2000/svg">
<g clip-path="url(#clip0_1009_46)">
<path d="M0.232915 0.528128V0.568623C0.754572 0.975225 1.08707 1.73748 1.7371 1.95411C1.97905 2.03474 2.37768 2.07664 2.52878 1.82394C2.14693 1.7449 2.03605 1.32874 2.37216 1.0938C2.92535 0.707117 4.00402 0.671283 4.546 1.08648C4.93579 1.38509 5.24427 1.96779 5.12067 2.47184C5.02053 2.88026 4.52479 3.24719 4.16061 2.90131C3.7432 2.50489 4.19622 2.02792 4.62673 2.02641C3.66351 0.869165 2.31802 2.98652 3.55799 3.5924C3.72574 3.67436 3.89001 3.68615 4.07255 3.68667C3.62498 4.49216 4.65903 4.39435 5.10174 4.11317C5.95554 3.57088 5.84308 2.4591 5.57675 1.62147H5.61633C5.99674 2.36541 6.96241 2.23353 7.63511 2.40054C7.91685 2.47049 8.11424 2.63272 8.34762 2.7958C8.52537 2.18062 8.19255 1.76536 7.79344 1.3785C8.3291 1.37855 8.89214 1.56235 9.21846 2.02641C9.57188 1.85366 9.59041 1.45335 9.41638 1.13554C9.78961 1.13444 10.405 0.865537 10.6039 0.528128H7.67469C7.53439 1.3328 6.62684 1.30162 6.01217 1.21122C5.31759 1.10907 4.67733 0.770971 3.99339 0.655482C3.22461 0.525674 2.49997 0.76569 1.7371 0.770907C1.45445 0.772848 1.3181 0.602439 1.06418 0.540842C0.809173 0.478983 0.494556 0.528128 0.232915 0.528128ZM11.4747 0.528128C11.6617 0.865216 12.255 1.13238 12.6227 1.13554C12.5591 1.31391 12.4408 1.97739 12.7847 1.97754C12.9481 1.97754 13.155 1.70692 13.2956 1.62222C13.5913 1.44415 13.9066 1.37874 14.2456 1.3785C13.7988 1.85569 13.6914 2.12898 13.6914 2.7958C14.583 2.19511 15.6809 2.45918 16.4623 1.66196C16.1992 2.50366 16.1368 3.47112 16.8977 4.07017C17.3658 4.43864 18.3408 4.52701 18.0061 3.68667C19.2219 3.68325 19.3401 1.71007 18.1248 1.70568C17.8528 1.7047 17.6363 1.84799 17.4123 1.98592V2.02641C17.833 2.02763 18.297 2.45117 17.9179 2.87238C17.5332 3.29983 17.0096 2.82472 16.9183 2.39086C16.8169 1.90947 17.1743 1.35557 17.5311 1.07611C18.0379 0.679239 18.9522 0.745109 19.5103 0.992532C20.0064 1.2125 19.9753 1.65967 19.5103 1.86443V1.90493C20.651 2.40055 21.0507 1.03873 21.8457 0.568623C21.3131 0.339974 20.9031 0.755212 20.4207 0.770473C19.7199 0.792639 19.0284 0.534354 18.3228 0.620679C17.4311 0.729772 16.6183 1.18972 15.7102 1.2534C15.3494 1.2787 14.9274 1.2658 14.6432 1.0054C14.5148 0.887758 14.4405 0.591662 14.2763 0.541002C14.016 0.460706 13.6461 0.528128 13.3748 0.528128H11.4747ZM22.202 0.528128V0.568623C22.9961 1.03818 23.4055 2.39674 24.5374 1.90493V1.86443C24.0784 1.66227 24.0411 1.20662 24.5374 0.992967C25.0879 0.756013 25.9655 0.680209 26.4771 1.04646C26.8796 1.33467 27.2402 1.912 27.123 2.43135C27.0267 2.8584 26.4953 3.27842 26.1298 2.87238C25.7508 2.45117 26.2147 2.02764 26.6354 2.02641V1.98592C26.441 1.85474 26.239 1.73303 26.002 1.70964C25.2043 1.63093 24.8367 2.66876 25.2102 3.2817C25.4125 3.61376 25.7263 3.68643 26.0812 3.68667C25.6284 4.3456 26.4068 4.4236 26.8729 4.23478C27.9134 3.81324 27.8723 2.56429 27.5854 1.66196C28.3682 2.45605 29.4687 2.19779 30.3563 2.7958C30.3563 2.12608 30.2518 1.85885 29.8021 1.3785C30.1538 1.37893 30.487 1.45146 30.7917 1.64028C30.9147 1.7165 31.1231 1.97977 31.2666 1.9777C31.6363 1.97237 31.4922 1.31992 31.425 1.13554C31.8359 1.132 32.3459 0.846619 32.6126 0.528128H30.673C30.4023 0.528128 30.031 0.460145 29.7715 0.541002C29.6294 0.585288 29.5796 0.82463 29.4811 0.931319C29.2646 1.16586 28.9617 1.2531 28.6542 1.25687C27.7076 1.26845 26.9091 0.817623 26.002 0.661173C25.2304 0.528078 24.5105 0.765428 23.7458 0.770907C23.459 0.772974 23.3287 0.604886 23.0728 0.540973C22.8075 0.474689 22.4747 0.528128 22.202 0.528128ZM33.4438 0.528128C33.6589 0.865052 34.2486 1.13442 34.6313 1.13554C34.4707 1.44911 34.484 1.85269 34.8293 2.02641C35.176 1.57079 35.7067 1.37856 36.2543 1.3785C35.8444 1.77581 35.5547 2.17114 35.7001 2.7958C35.9302 2.6355 36.1356 2.46966 36.4126 2.40054C37.0859 2.23255 38.0524 2.36683 38.4314 1.62147H38.471C38.1962 2.48573 38.1003 3.65142 39.0252 4.15947C39.478 4.40824 40.4402 4.44394 39.9752 3.68667C40.1578 3.68616 40.3218 3.67418 40.4898 3.5924C41.7338 2.98649 40.3891 0.871046 39.421 2.02641C39.8577 2.02793 40.3095 2.50012 39.8871 2.90131C39.5158 3.25393 38.9942 2.85601 38.9194 2.43135C38.8246 1.89302 39.1626 1.34318 39.5793 1.0399C40.0924 0.666525 41.1144 0.736226 41.6371 1.06365C41.9993 1.29051 41.9385 1.73727 41.5189 1.82394C41.671 2.07827 42.0674 2.03216 42.3106 1.95455C43.0032 1.73357 43.2379 0.895811 43.8544 0.568623V0.528128C43.5807 0.528128 43.2503 0.476136 42.9835 0.540842C42.7296 0.602444 42.5933 0.772839 42.3106 0.770907C41.6236 0.766208 40.9436 0.525134 40.2523 0.626457C39.497 0.737158 38.7957 1.09942 38.0356 1.21122C37.4209 1.30162 36.5133 1.3328 36.373 0.528128H33.4438ZM22.0041 0.690105C21.5069 1.56992 20.3222 1.85594 20.6582 3.07926H20.7374C20.9071 2.63712 21.3293 2.59688 21.5466 3.03876C21.8404 3.63619 21.8907 4.65846 21.4424 5.18492C21.1393 5.54095 20.624 5.878 20.1436 5.73965C19.7088 5.61444 19.3094 5.03203 19.7891 4.68699C20.1798 4.40599 20.6126 4.80172 20.5395 5.22544C20.9426 4.99923 20.9617 4.35581 20.7006 4.01428C20.3215 3.5183 19.4188 3.49095 19.0746 4.05127C18.9655 4.22903 18.9325 4.45303 18.9165 4.65852C18.2316 4.18156 18.2391 5.15745 18.4525 5.58989C18.9434 6.58469 20.0218 6.44277 20.8957 6.23779C20.2931 6.86734 20.3846 7.55157 20.1873 8.34349C20.1177 8.62323 19.9381 8.81683 19.827 9.07238C20.3246 9.07238 20.9529 9.04116 21.1332 8.46497H21.1728C21.2739 9.03035 20.9553 9.60953 20.5395 9.96325V10.0037C20.8072 10.2288 21.1028 10.3328 21.4103 10.1252C21.4255 10.4828 21.596 10.7235 21.7786 11.0161C21.8309 11.0999 21.8981 11.2851 22.0084 11.3027C22.1357 11.3231 22.2217 11.1018 22.2738 11.0161C22.4535 10.7209 22.6299 10.4855 22.6374 10.1252C22.9449 10.3328 23.2405 10.2288 23.5083 10.0037V9.96325C23.0852 9.60314 22.8095 9.03134 22.8749 8.46497H22.9145C23.1027 9.03125 23.7269 9.07238 24.2208 9.07238C24.1144 8.81508 23.9282 8.62299 23.8605 8.34349C23.6675 7.54631 23.7635 6.86863 23.152 6.23779C24.0912 6.45807 25.2447 6.56152 25.6669 5.42791C25.839 4.9658 25.7309 4.24092 25.1312 4.65852C25.123 4.46365 25.0942 4.2636 24.9979 4.09164C24.6426 3.45734 23.6712 3.51655 23.2986 4.09161C23.0878 4.41694 23.1646 5.02741 23.5083 5.22544C23.4409 4.80562 23.8706 4.40791 24.2586 4.68699C24.7161 5.01598 24.3731 5.59709 23.9437 5.73087C23.4688 5.87879 22.9564 5.57308 22.6416 5.22485C22.1674 4.70033 22.2006 3.64388 22.5117 3.03876C22.7265 2.62108 23.1554 2.61326 23.3103 3.07926C23.5486 2.91229 23.4925 2.46907 23.3944 2.22888C23.143 1.613 22.4494 1.15995 22.0041 0.690105ZM0.0349952 0.730599C0.0349952 0.999842 -0.0107531 1.31786 0.0469987 1.58097C0.103877 1.84012 0.27417 1.98284 0.272315 2.26937C0.267669 2.98704 0.0297017 3.6914 0.131114 4.41556C0.239403 5.18882 0.593243 5.90421 0.702729 6.68323C0.788405 7.29283 0.806967 8.22023 0.0349952 8.34349V11.34C0.364821 11.1366 0.627683 10.507 0.628754 10.1252C0.93942 10.3032 1.33073 10.2843 1.4996 9.92276C1.04111 9.58957 0.866317 9.01602 0.866258 8.46497H0.905841C1.14266 9.01571 1.68993 9.07238 2.21211 9.07238C2.11918 8.78568 1.92333 8.56598 1.85185 8.2625C1.66501 7.46916 1.75216 6.86232 1.14334 6.23779C1.94721 6.42632 2.92464 6.59232 3.48716 5.79233C3.7926 5.35795 3.95437 4.17481 3.12254 4.65852C3.12204 4.47377 3.11547 4.29875 3.02685 4.1321C2.35448 2.86771 0.388077 4.28324 1.4996 5.22544C1.50109 4.78012 1.96321 4.33747 2.35484 4.75342C2.72032 5.1416 2.29425 5.6459 1.89544 5.74199C1.42114 5.85627 0.903684 5.55046 0.609695 5.18335C0.177633 4.64383 0.186018 3.48539 0.583244 2.91906C0.815041 2.58859 1.22505 2.69182 1.30168 3.07926C1.56467 2.91469 1.49798 2.48173 1.40192 2.22888C1.17053 1.61979 0.478952 1.17549 0.0349952 0.730599ZM43.9336 0.811587C43.5388 1.34017 42.8148 1.63174 42.6188 2.30987C42.5502 2.54694 42.5139 2.93395 42.746 3.07926C42.8302 2.6538 43.2688 2.60846 43.4929 2.9584C43.8423 3.50434 43.8727 4.61942 43.4771 5.1443C43.1975 5.51516 42.6634 5.85227 42.1919 5.75109C41.7804 5.6628 41.3241 5.15796 41.6984 4.75342C42.0902 4.32994 42.5469 4.7813 42.5481 5.22544C43.6509 4.34006 41.7679 2.87803 41.0442 4.09164C40.9416 4.2637 40.9268 4.46239 40.9252 4.65852C40.0968 4.1768 40.2559 5.35904 40.5606 5.79233C41.1227 6.59176 42.1022 6.42593 42.9044 6.23779C42.2694 6.88922 42.391 7.56641 42.1725 8.38398C42.1041 8.63979 41.9267 8.82996 41.8356 9.07238C42.3592 9.07238 42.9037 9.01898 43.1419 8.46497H43.1815C43.1815 9.02411 43.015 9.58348 42.5481 9.92276C42.717 10.2843 43.1083 10.3032 43.419 10.1252C43.423 10.6107 43.7587 10.9126 43.9336 11.34H43.9731V8.34349C43.1483 8.09985 43.2648 7.0767 43.3972 6.39977C43.5298 5.72109 43.8597 5.06198 43.9268 4.37507C43.9979 3.64742 43.7657 2.94733 43.776 2.22888C43.7827 1.75326 44.1406 1.31643 43.9336 0.811587ZM10.4456 2.14789C10.2697 2.09085 9.6231 1.95785 9.62249 2.31368C9.62224 2.4656 9.83722 2.63133 9.91247 2.7553C10.1102 3.08113 10.2576 3.46469 10.1685 3.84864C9.89066 3.27727 9.3833 3.24123 8.82263 3.24123C8.95194 3.47347 9.11658 3.66714 9.18893 3.92963C9.41655 4.75548 9.28742 5.41704 9.93098 6.07582C9.07983 5.87438 8.19283 5.70919 7.5714 6.52125C7.22248 6.97721 7.13122 8.04683 7.95178 7.65509C7.95232 7.85645 7.96294 8.04563 8.07032 8.22197C8.41587 8.78947 9.29981 8.81783 9.69631 8.29934C9.96333 7.95017 9.96007 7.31045 9.53514 7.08817C9.63112 7.51689 9.16456 7.86945 8.7872 7.61422C8.3258 7.30216 8.71561 6.71792 9.09971 6.57746C9.54191 6.41578 10.0501 6.70327 10.3627 7.01421C10.8953 7.54401 10.8566 8.58708 10.562 9.23436C10.3384 9.72569 9.9125 9.64464 9.73306 9.19386H9.69347C9.20643 10.3519 10.513 10.787 10.9997 11.583C11.1441 11.464 11.2579 11.3128 11.3956 11.1849C11.8681 10.7463 12.911 9.97119 12.3456 9.19386C12.1056 9.68716 11.661 9.6928 11.4633 9.15337C11.2546 8.58403 11.1812 7.67585 11.5694 7.16916C11.8592 6.79092 12.4094 6.42214 12.8998 6.55884C13.327 6.67794 13.7385 7.22798 13.2915 7.59703C12.9041 7.91681 12.4711 7.50751 12.5039 7.08817C12.1227 7.32499 12.0994 7.96712 12.3612 8.30237C12.7562 8.80824 13.665 8.80524 13.9936 8.22197C14.0925 8.0464 14.1228 7.85437 14.1269 7.65509C14.8536 8.07152 14.8276 7.13803 14.5891 6.68323C14.0982 5.74752 12.9988 5.79739 12.1477 6.07582C12.7541 5.45022 12.6648 4.80096 12.8562 4.01062C12.9261 3.7219 13.1067 3.50824 13.2164 3.24123C12.7123 3.24123 12.1035 3.26679 11.9102 3.84864H11.8706C11.8706 3.25708 12.0461 2.74008 12.5039 2.35036V2.30987C12.2423 2.06981 11.9425 1.97947 11.6331 2.18839C11.63 1.81746 11.4697 1.59947 11.2804 1.29752C11.2264 1.21145 11.1581 0.999307 11.035 0.999307C10.9167 0.999307 10.851 1.17269 10.7993 1.25705C10.6259 1.54008 10.4099 1.79492 10.4456 2.14789ZM32.4146 2.14789C32.079 2.02274 31.7692 2.04 31.5438 2.35036C31.9924 2.70747 32.2096 3.27887 32.1771 3.84864H32.1376C31.9548 3.26468 31.3332 3.24123 30.8313 3.24123C30.9424 3.49661 31.1237 3.68987 31.1915 3.97013C31.352 4.63282 31.2097 5.68613 31.9396 6.03532V6.07582C31.1109 5.88145 30.1414 5.68525 29.5563 6.52129C29.2621 6.9416 29.1002 8.12533 29.9209 7.65509C29.929 7.84962 29.9574 8.05042 30.0541 8.22185C30.3936 8.82348 31.3373 8.80044 31.7165 8.26234C31.9505 7.93011 31.9216 7.30017 31.5438 7.08817C31.6028 7.51991 31.135 7.90975 30.7563 7.59703C30.3146 7.23238 30.7249 6.67732 31.148 6.55884C31.6435 6.42008 32.1846 6.78572 32.4784 7.16916C32.8721 7.68307 32.7894 8.57608 32.5849 9.15337C32.3924 9.69676 31.941 9.68478 31.7021 9.19386C31.0168 10.1779 32.6339 10.9607 33.0084 11.6235H33.048C33.4481 10.8023 34.9219 10.3509 34.3543 9.19386H34.3147C34.1349 9.64558 33.7146 9.72391 33.4909 9.23436C33.2075 8.61445 33.1517 7.5779 33.6491 7.05458C33.9512 6.73667 34.4609 6.42171 34.9084 6.56397C35.3239 6.69605 35.7469 7.27747 35.2605 7.61891C34.8865 7.88148 34.4186 7.5079 34.5126 7.08817C34.1408 7.28577 34.0739 7.88777 34.3009 8.22197C34.6791 8.77895 35.6358 8.85421 35.9957 8.22142C36.0967 8.04385 36.0958 7.85387 36.0959 7.6551C37.0233 8.04159 36.7707 6.80447 36.3611 6.36632C35.7377 5.69935 34.8835 5.89436 34.1168 6.07583V6.03534C34.8277 5.62568 34.6851 4.65685 34.8556 3.97014C34.9253 3.68931 35.1113 3.49577 35.2251 3.24124C34.7434 3.24124 34.0577 3.25125 33.9188 3.84866H33.8792C33.7776 3.28676 34.0808 2.68977 34.5126 2.35037C34.2849 2.04951 33.9736 2.02417 33.6417 2.1479C33.6134 1.79288 33.4278 1.54988 33.2484 1.25706C33.1968 1.17271 33.131 0.999319 33.0127 0.999319C32.8989 0.999319 32.84 1.17621 32.7926 1.25706C32.6168 1.55635 32.4222 1.78486 32.4146 2.14789ZM22.0437 1.66198C22.3967 2.06709 22.2453 2.54801 22.1792 3.03877C22.1216 3.46677 22.1057 3.90258 22.1244 4.33458C22.1519 4.97208 22.4862 5.61424 22.6206 6.23781C22.7324 6.75628 22.8602 7.44017 22.6153 7.93856C22.3566 8.46519 21.697 8.45657 21.4374 7.93856C21.2154 7.49559 21.3206 6.82613 21.4103 6.35929C21.612 5.31091 22.0443 4.41634 21.9021 3.32223C21.8357 2.81127 21.5696 2.02311 22.0437 1.66198ZM11.0393 10.6517C10.5678 10.2517 10.8643 9.48119 10.9139 8.95091C11.0169 7.84843 10.6088 6.9747 10.406 5.91386C10.3155 5.44051 10.2133 4.77528 10.4601 4.33462C10.7428 3.83004 11.3746 3.84947 11.6201 4.37511C11.8649 4.89931 11.7331 5.57448 11.6163 6.11633C11.483 6.7346 11.1654 7.34613 11.122 7.97905C11.0688 8.75644 11.5786 10.0365 11.0393 10.6517ZM33.048 10.6517C32.5636 10.2827 32.8457 9.54793 32.8926 9.0319C32.9345 8.57063 32.9845 8.06939 32.8707 7.61461C32.6355 6.67406 31.9291 5.29045 32.4505 4.33474C32.7391 3.80562 33.3982 3.87256 33.6333 4.41557C33.8675 4.95655 33.7014 5.73076 33.5676 6.2783C33.414 6.90656 33.1723 7.49582 33.0989 8.14103C33.0094 8.92696 33.5817 9.98543 33.048 10.6517ZM5.45799 10.6517H5.41841C5.08499 9.92638 4.06614 10.0683 3.43921 9.9034C3.15113 9.82762 2.95014 9.63758 2.68712 9.51783C2.68712 10.0082 2.70123 10.7131 3.28088 10.8541V10.8946C2.73417 10.9981 2.14689 10.6869 1.81627 10.2467C1.52625 10.4796 1.49844 10.801 1.61835 11.1376C1.27131 11.1666 1.03377 11.3564 0.747536 11.5399C0.665072 11.5928 0.495586 11.66 0.495586 11.7811C0.495586 11.9065 0.702478 11.9775 0.78709 12.0311C1.07815 12.2153 1.30411 12.3897 1.65794 12.3929C1.45637 12.7053 1.5453 13.0182 1.77669 13.2838H1.81627C2.18271 12.8333 2.71362 12.6021 3.28088 12.6359V12.6764C2.71995 12.8714 2.68712 13.5015 2.68712 14.0127C2.95042 13.8994 3.15427 13.7173 3.43921 13.644C4.20736 13.4463 4.85063 13.5354 5.45799 12.9193C5.21997 13.7774 5.1255 14.8674 6.01217 15.3913C6.45517 15.653 7.42416 15.7118 7.00177 14.944C7.19226 14.9356 7.38782 14.9062 7.55591 14.8077C8.1321 14.4699 8.12649 13.5418 7.63453 13.1376C7.30447 12.8664 6.68198 12.8889 6.44759 13.2838C6.86514 13.2494 7.26655 13.6877 6.94517 14.0894C6.57303 14.5545 6.03285 14.0911 5.92906 13.6482C5.81598 13.1657 6.17134 12.6137 6.52679 12.3277C7.02824 11.9244 7.90279 12.0098 8.46637 12.2187C9.00155 12.4171 8.98735 12.8768 8.50595 13.1218C9.47306 13.8267 10.2304 12.1702 10.881 11.7855V11.745C9.99674 11.2757 9.75969 10.0192 8.54554 10.3682V10.4492C8.97956 10.6495 9.00595 11.0878 8.54554 11.2952C7.96006 11.5589 7.01236 11.6421 6.49389 11.191C6.12207 10.8675 5.78593 10.314 5.95154 9.80129C6.08791 9.3791 6.64882 9.01512 6.96695 9.48115C7.22965 9.86598 6.86441 10.3444 6.44759 10.2467C6.64271 10.6309 7.22487 10.6894 7.55536 10.4649C8.11306 10.086 8.17426 9.0925 7.55579 8.72954C7.38118 8.62706 7.19679 8.62709 7.00177 8.62696C7.40298 7.81488 6.38959 7.87451 5.933 8.20736C5.10413 8.81162 5.26295 9.78134 5.45799 10.6517ZM15.0769 8.62696C14.8836 8.62696 14.6975 8.62738 14.5227 8.72485C13.9306 9.05588 13.9159 10.0286 14.4441 10.4234C14.7849 10.678 15.4099 10.6592 15.6311 10.2467C15.2084 10.3458 14.8072 9.87732 15.0972 9.47911C15.4113 9.04788 15.9494 9.33906 16.1008 9.76079C16.2656 10.22 16.0104 10.7268 15.7065 11.056C15.2164 11.5871 14.4525 11.5508 13.8102 11.3946C13.5561 11.3327 13.1468 11.1882 13.1548 10.8541C13.1607 10.6079 13.4262 10.5445 13.5331 10.3682C12.4191 10.1331 11.916 11.073 11.1977 11.7855C11.7567 12.1762 12.0481 12.9269 12.7019 13.1838C12.935 13.2754 13.3757 13.3164 13.5331 13.0813C13.0907 12.9465 13.0584 12.5222 13.454 12.2861C14.0236 11.9461 15.1299 11.9214 15.6275 12.4004C15.9614 12.7218 16.2562 13.2469 16.114 13.7292C15.9912 14.1455 15.439 14.5258 15.1107 14.086C14.8016 13.672 15.2076 13.2383 15.6311 13.2838C14.7514 12.1372 13.2979 14.0994 14.5227 14.819C14.6887 14.9165 14.8893 14.9401 15.0769 14.944C14.6671 15.5403 15.3311 15.6691 15.7894 15.5069C16.9114 15.1096 16.8836 13.8302 16.5811 12.8788C17.2292 13.5414 17.8637 13.4277 18.679 13.6547C18.9355 13.7261 19.121 13.8922 19.352 14.0127C19.4443 13.5022 19.2936 12.8996 18.7978 12.6764C19.2865 12.4869 19.9449 12.8836 20.2228 13.2838C20.5646 13.105 20.5818 12.7073 20.4207 12.3929C20.7872 12.3849 21.0317 12.1825 21.3311 11.9906C21.4079 11.9413 21.5902 11.8689 21.5718 11.7494C21.5542 11.6352 21.3748 11.5751 21.2916 11.5242C20.9997 11.3457 20.7704 11.1668 20.4207 11.1376C20.5063 10.9707 20.613 10.2494 20.2293 10.3401C20.1004 10.3706 19.9758 10.5409 19.8665 10.6156C19.5618 10.824 19.1643 10.9829 18.7978 10.8946C19.2888 10.5753 19.4219 10.0874 19.352 9.51783C18.4836 10.1029 17.3834 9.8374 16.6207 10.6112C16.7958 9.74312 16.9548 8.70898 16.0665 8.16043C15.6114 7.87944 14.6018 7.85331 15.0769 8.62696ZM27.4667 10.6517C26.6905 9.85983 25.5948 10.0854 24.6958 9.51783C24.673 10.0985 24.735 10.5598 25.25 10.8946C24.7356 11.0185 24.1169 10.6695 23.8249 10.2467C23.5223 10.4768 23.4546 10.8012 23.627 11.1376C23.2715 11.1673 22.5761 11.4686 22.4395 11.826C22.8158 12.0531 23.1735 12.383 23.627 12.3929C23.4695 12.714 23.5028 13.0855 23.8249 13.2838C24.101 12.8863 24.7647 12.4882 25.25 12.6764C24.7104 12.9193 24.6778 13.4831 24.6958 14.0127C24.9454 13.899 25.1343 13.7136 25.4083 13.6441C26.0837 13.473 27.0248 13.6094 27.4271 12.8788H27.4667C27.2066 13.7108 27.1112 14.7438 27.9021 15.3232C28.3606 15.6591 29.3414 15.7752 29.0104 14.944C29.2004 14.9356 29.3973 14.9005 29.564 14.801C30.746 14.0954 29.2977 12.1353 28.4167 13.2838C28.8307 13.2393 29.2637 13.6745 28.945 14.086C28.6091 14.5197 28.0588 14.1532 27.9338 13.7292C27.793 13.2517 28.0949 12.7229 28.4234 12.4051C28.9365 11.9088 30.0961 11.941 30.6712 12.3206C31.0377 12.5625 30.8934 12.9801 30.5146 13.0813C30.6721 13.3165 31.1127 13.2754 31.3459 13.1838C31.9997 12.9271 32.3014 12.1893 32.8501 11.7855C32.1259 11.0672 31.642 10.1303 30.5146 10.3682C30.6284 10.5538 30.8897 10.584 30.8967 10.8541C30.9055 11.1899 30.4907 11.329 30.2375 11.3956C29.5639 11.5728 28.754 11.5681 28.2767 10.9756C28.0274 10.666 27.8179 10.2527 27.9333 9.84178C28.0359 9.47663 28.4357 9.07967 28.8118 9.34382C29.3631 9.73104 28.8719 10.2319 28.4167 10.2872C29.5114 11.3587 30.7028 9.29436 29.4854 8.7047C29.333 8.63088 29.1754 8.62742 29.0104 8.62696C29.3592 7.70057 28.2386 7.9189 27.7839 8.31619C27.1083 8.9065 27.2229 9.88499 27.4667 10.6517ZM37.046 8.62696C36.8517 8.62696 36.666 8.62624 36.4924 8.72954C35.8727 9.09836 35.9471 10.0775 36.4918 10.4633C36.8188 10.6949 37.4068 10.6275 37.6001 10.2467C37.1898 10.3429 36.8247 9.86419 37.0813 9.48158C37.4151 8.98405 37.9834 9.41675 38.1126 9.84178C38.2516 10.2996 37.9437 10.821 37.633 11.1301C37.1214 11.6389 36.1082 11.5818 35.5022 11.2919C35.0236 11.063 35.1002 10.6331 35.5418 10.4492V10.4087C34.4108 9.82802 33.9695 11.3356 33.1667 11.745V11.7855C33.8146 12.1686 34.5799 13.8229 35.5418 13.1218C35.0619 12.8775 35.0502 12.4156 35.5814 12.2187C36.1457 12.0096 37.0186 11.9249 37.521 12.3277C37.8958 12.6283 38.2532 13.1818 38.1176 13.6887C38.0018 14.1215 37.4592 14.5412 37.1027 14.0894C36.797 13.7019 37.1781 13.2234 37.6001 13.2838C37.3929 12.8973 36.7771 12.8677 36.4524 13.1071C35.9264 13.495 35.9038 14.4604 36.4919 14.8077C36.6595 14.9066 36.8558 14.9357 37.046 14.944C36.5863 15.7835 37.7434 15.618 38.1543 15.317C38.9715 14.7184 38.7797 13.7267 38.5897 12.8788H38.6293C38.9707 13.6256 40.0003 13.48 40.6481 13.6441C40.9221 13.7136 41.111 13.899 41.3606 14.0127C41.3606 13.4993 41.3377 12.8634 40.7669 12.6764V12.6359C41.3238 12.6027 41.8824 12.8248 42.2315 13.2838C42.5348 13.0532 42.5517 12.7363 42.4294 12.3929C42.7843 12.3852 43.0076 12.1861 43.3002 12.0063C43.3792 11.9577 43.5521 11.8975 43.5521 11.7811C43.5521 11.66 43.3827 11.5928 43.3002 11.5399C43.014 11.3564 42.7764 11.1666 42.4294 11.1376C42.5503 10.7981 42.5256 10.4796 42.2315 10.2467C41.9006 10.6897 41.3171 10.9988 40.7669 10.8946V10.8541C41.3508 10.7121 41.3606 10.0106 41.3606 9.51783C41.1118 9.63425 40.9226 9.82448 40.6481 9.89581C39.9768 10.0702 39.0298 9.92438 38.6293 10.6517C38.5786 9.84404 38.9991 9.22017 38.4045 8.46658C38.0231 7.98329 36.641 7.61019 37.046 8.62696ZM9.93098 11.745C9.57267 12.2372 8.85044 11.9518 8.34762 11.904C7.89672 11.8611 7.40675 11.81 6.96219 11.9264C6.03452 12.1692 4.70224 12.8843 3.75604 12.3558C3.23507 12.0648 3.32299 11.3908 3.83505 11.1519C4.3627 10.9056 5.11942 11.0763 5.65592 11.2135C6.26919 11.3703 6.84613 11.6176 7.47678 11.6929C8.24368 11.7846 9.28203 11.2009 9.93098 11.745ZM17.1353 11.0682C17.5148 11.0205 18.0297 11.0023 18.3617 11.224C18.8273 11.5348 18.7234 12.1584 18.2436 12.3853C17.2778 12.842 16.0125 12.1712 15.0769 11.9264C14.5427 11.7865 13.9529 11.8753 13.4144 11.9412C13.1153 11.9778 12.7625 12.0861 12.4644 12.0059C12.3582 11.9773 12.161 11.8906 12.2009 11.7452C12.3086 11.3532 13.0365 11.5515 13.2956 11.5883C13.8422 11.666 14.4107 11.7469 14.9581 11.6452C15.6969 11.508 16.3799 11.1631 17.1353 11.0682ZM26.1208 11.0687C27.1764 10.9131 28.089 11.4593 29.0896 11.6452C29.8525 11.7869 30.5871 11.5491 31.3459 11.5105C31.5292 11.5012 32.077 11.6673 31.7753 11.9129C31.3804 12.2342 30.499 11.9023 30.0396 11.8701C28.6698 11.7741 27.3216 12.828 25.9625 12.4431C25.1002 12.1989 25.3201 11.1868 26.1208 11.0687ZM34.1168 11.7855C34.4837 11.3075 35.2378 11.5786 35.7397 11.6468C36.8318 11.7953 37.7007 11.3364 38.7481 11.1297C39.1921 11.042 39.8329 10.9453 40.2523 11.1653C40.7783 11.4412 40.7777 12.1075 40.2522 12.3776C39.7583 12.6315 39.102 12.4914 38.5897 12.3757C37.9805 12.2381 37.3519 11.8962 36.7293 11.8681C35.9836 11.8344 34.7044 12.3213 34.1168 11.7855ZM10.9997 11.9475C10.5614 12.7232 9.15991 13.2216 9.69348 14.3366H9.73306C9.9487 13.8242 10.3827 13.8684 10.5859 14.3771C10.8135 14.9467 10.8889 15.8449 10.5037 16.3613C10.2147 16.7487 9.67489 17.1051 9.17889 16.9878C8.75392 16.8873 8.33667 16.3425 8.74777 15.9677C9.15745 15.5941 9.57329 16.053 9.57472 16.4828H9.61431C9.74173 16.2852 9.86413 16.0767 9.88394 15.8349C9.95025 15.026 8.94856 14.6419 8.34765 15.0248C8.0403 15.2207 7.95272 15.5272 7.95178 15.8754C7.07618 15.5105 7.25385 16.6202 7.61648 17.0896C8.18256 17.8225 9.16783 17.7086 9.93098 17.4547C9.14836 18.2575 9.41022 19.3766 8.82263 20.2893C9.39374 20.3127 9.83873 20.2531 10.1685 19.7223C10.2873 20.2342 9.96851 20.9123 9.53514 21.1801C9.78344 21.522 10.0873 21.5237 10.4456 21.3826C10.4072 21.7432 10.6217 21.9821 10.7936 22.2734C10.8426 22.3564 10.9167 22.5713 11.0393 22.5554C11.1532 22.5407 11.213 22.3587 11.2652 22.2735C11.4467 21.9767 11.6299 21.7451 11.6331 21.3826C11.9385 21.5394 12.3315 21.5251 12.5039 21.1801C12.0465 20.8206 11.8706 20.2931 11.8706 19.7223H11.9102C12.1477 20.2744 12.6988 20.3076 13.2164 20.2893C13.0984 20.018 12.9235 19.8194 12.8557 19.5199C12.7029 18.8447 12.8157 17.8738 12.1081 17.4952V17.4547C13.0604 17.7662 14.3142 17.7808 14.691 16.6043C14.8428 16.1303 14.6859 15.5139 14.1269 15.9159C14.1253 15.7175 14.1062 15.5268 14.0115 15.3491C13.3459 14.1004 11.383 15.5326 12.5039 16.4828C12.4888 16.0422 12.9182 15.5902 13.3267 15.9724C13.7199 16.3401 13.3112 16.8874 12.8998 16.9877C12.4305 17.102 11.9114 16.7863 11.614 16.4354C11.1755 15.9179 11.1953 14.7782 11.5527 14.2153C11.7865 13.8472 12.2173 13.887 12.306 14.3366C12.536 14.1754 12.4955 13.7249 12.4062 13.4863C12.1809 12.8839 11.4657 12.3598 10.9997 11.9475ZM33.0084 11.9475C32.6137 12.5088 31.8925 12.8173 31.6415 13.4863C31.552 13.7248 31.5119 14.1755 31.7417 14.3366C31.8407 13.9491 32.2489 13.8015 32.4854 14.1764C32.8571 14.7659 32.8881 15.9516 32.4027 16.4759C32.0918 16.8118 31.5754 17.1209 31.1084 16.9768C30.694 16.849 30.3356 16.2859 30.7596 15.9423C31.1618 15.6163 31.5873 16.0592 31.5438 16.4828C32.6664 15.5815 30.7504 14.0999 30.0607 15.3091C29.9635 15.4796 29.9291 15.6811 29.9209 15.8754C29.1084 15.5368 29.2219 16.5402 29.5502 17.0092C30.115 17.816 31.1283 17.7201 31.9396 17.4547V17.4952C31.2255 17.9067 31.3589 18.8695 31.1915 19.5604C31.1237 19.8406 30.9424 20.0339 30.8313 20.2893C31.3489 20.3076 31.9001 20.2744 32.1376 19.7223C32.3215 20.2188 31.9324 20.8978 31.5438 21.1801C31.7376 21.5097 32.1008 21.5437 32.4146 21.3826C32.4243 21.8466 32.7468 22.2124 32.9688 22.5974C33.3182 22.4577 33.6127 21.7462 33.6418 21.3826C33.9706 21.5589 34.2877 21.4897 34.5126 21.1801C34.0993 20.8815 33.7582 20.2486 33.8793 19.7223C34.2066 20.2492 34.6575 20.3126 35.2251 20.2893C34.6703 19.3695 34.8908 18.2487 34.1168 17.4547C34.8662 17.7041 35.8227 17.8213 36.3997 17.1301C36.7881 16.665 37.0015 15.5187 36.096 15.8754C36.0955 15.7066 36.0921 15.5454 36.02 15.3895C35.4435 14.1441 33.4256 15.3629 34.473 16.4828C34.5271 16.0172 35.0167 15.5146 35.3952 16.0786C35.6534 16.4634 35.2654 16.8723 34.9084 16.9773C34.5067 17.0954 34.1027 16.8811 33.8001 16.626C33.2338 16.1486 33.2145 15.3391 33.3795 14.6606C33.443 14.3996 33.5591 13.9722 33.8793 13.9452C34.1673 13.9209 34.2037 14.2147 34.3938 14.3366C34.6264 13.1833 33.7105 12.6883 33.0084 11.9475ZM0.0349994 12.2309V14.1747C0.0349994 14.4549 -0.0294119 14.8306 0.0475829 15.1002C0.093711 15.2617 0.353288 15.3187 0.466269 15.4342C0.68267 15.6555 0.743858 15.9778 0.747357 16.2803C0.758787 17.2686 0.29588 18.1235 0.144008 19.0744C0.0234607 19.8292 0.272526 20.5537 0.272197 21.3016C0.272073 21.5707 0.124611 21.7082 0.0553104 21.9495C-0.0210255 22.2154 0.0349994 22.5645 0.0349994 22.8404H0.0745833C0.551437 21.9965 1.82118 21.6519 1.38085 20.4512H1.34127C1.12312 20.9697 0.6717 20.9336 0.473141 20.4107C0.259607 19.8484 0.18625 18.9865 0.541679 18.467C0.798913 18.091 1.34527 17.7125 1.81628 17.7977C2.22925 17.8724 2.74035 18.3655 2.36141 18.7866C1.98627 19.2034 1.50367 18.8055 1.4996 18.3455C1.11533 18.586 1.09998 19.2237 1.36234 19.5587C1.76219 20.0694 2.66163 20.0526 3.00358 19.4793C3.10621 19.3073 3.12096 19.1086 3.12254 18.9125C3.90632 19.3155 3.83178 18.3258 3.54722 17.8596C3.02111 16.9978 1.96884 17.0632 1.14335 17.3332C1.76196 16.6985 1.66898 16.0303 1.87083 15.2275C1.93953 14.9542 2.1078 14.7524 2.21212 14.4986C1.58384 14.4986 1.31442 14.6265 0.866262 15.0655C0.866344 14.3743 1.23876 14.0991 1.4996 13.5267C1.20565 13.3286 0.963215 13.2806 0.628758 13.4053C0.624804 12.9526 0.312239 12.6169 0.114167 12.2309H0.0349994ZM21.4103 13.4053C21.0747 13.2801 20.7649 13.2974 20.5395 13.6077C20.9684 13.9449 21.2728 14.547 21.1728 15.106H21.1332C20.9606 14.5116 20.3304 14.4986 19.827 14.4986C19.9439 14.7673 20.134 14.9717 20.2029 15.268C20.3574 15.9327 20.2336 16.9171 20.9353 17.2927V17.3332C20.0995 17.1372 19.1009 16.9379 18.5424 17.8191C18.2827 18.2288 18.1343 19.3607 18.9165 18.9125C18.9327 19.1206 18.9668 19.3409 19.0801 19.5193C19.4518 20.1042 20.3892 20.0316 20.7491 19.4793C20.9675 19.1443 20.9099 18.5424 20.5395 18.3455C20.6275 18.7653 20.1641 19.1341 19.7911 18.8763C19.3245 18.5537 19.6862 17.9671 20.104 17.8282C20.5951 17.665 21.1574 18.0117 21.4625 18.3897C21.8629 18.8854 21.7975 19.6695 21.6416 20.2488C21.5626 20.5421 21.302 21.0357 20.9376 20.7856C20.8187 20.7041 20.7781 20.5639 20.6978 20.4512C20.1169 21.585 21.5982 22.0805 22.0041 22.8809H22.0437C22.4163 22.1461 24.0027 21.5141 23.3499 20.4512C23.0398 20.943 22.6249 20.9462 22.4351 20.3298C22.2631 19.7714 22.177 18.9679 22.5407 18.467C22.8322 18.0656 23.3935 17.6724 23.9041 17.8162C24.3159 17.9322 24.7281 18.4956 24.2957 18.8488C23.9181 19.1573 23.4384 18.7864 23.5083 18.3455C23.1305 18.5575 23.1015 19.1875 23.3356 19.5197C23.7035 20.0419 24.6105 20.0812 24.9676 19.5193C25.0809 19.3409 25.115 19.1206 25.1312 18.9125C25.9793 19.3985 25.7539 18.1419 25.4573 17.7383C24.8693 16.9378 23.9223 17.1433 23.1124 17.3332V17.2927C23.831 16.947 23.7016 15.8835 23.8605 15.2275C23.9284 14.9473 24.1097 14.754 24.2208 14.4986C23.7198 14.4986 23.0858 14.516 22.9145 15.106H22.8749C22.8093 14.5373 23.0653 13.9559 23.5083 13.6077C23.2828 13.2974 22.9731 13.2801 22.6374 13.4053C22.6215 13.0485 22.4328 12.8095 22.2595 12.5144C22.212 12.4336 22.1532 12.2567 22.0394 12.2567C21.9207 12.2567 21.8496 12.4289 21.7981 12.5144C21.6206 12.809 21.4388 13.0494 21.4103 13.4053ZM43.9336 12.231C43.7604 12.6416 43.4231 12.9349 43.419 13.4053C43.0775 13.278 42.8206 13.3172 42.5481 13.5673V13.6078C43.0007 14.002 43.1815 14.5128 43.1815 15.106H43.1419C42.9203 14.5284 42.3581 14.4986 41.8356 14.4986C41.9453 14.7655 42.1268 14.9791 42.1959 15.268C42.3848 16.0589 42.2979 16.7075 42.9044 17.3332C42.0975 17.0693 41.0689 16.9953 40.5335 17.8191C40.2398 18.271 40.1167 19.3282 40.9252 18.9125C40.9268 19.1093 40.9481 19.3053 41.0473 19.4794C41.379 20.0609 42.291 20.0624 42.6854 19.5588C42.9477 19.2237 42.9324 18.586 42.5481 18.3456C42.5466 18.7759 42.1097 19.1953 41.7222 18.8222C41.3071 18.4226 41.7711 17.9043 42.1919 17.8062C42.6754 17.6934 43.2431 18.0804 43.5125 18.467C43.8615 18.9681 43.7873 19.8207 43.5952 20.3703C43.4024 20.922 42.9546 20.9823 42.7065 20.4513C42.0249 21.3883 43.5227 22.1628 43.9336 22.7594H43.9732C43.9732 22.4897 44.0182 22.1728 43.9612 21.909C43.913 21.6862 43.7734 21.5448 43.776 21.3016C43.7838 20.5693 44.0204 19.8546 43.9166 19.1149C43.8104 18.3582 43.4571 17.6524 43.3511 16.8878C43.2706 16.3066 43.2332 15.3646 43.9732 15.2275V13.1623L43.9336 12.231ZM11.0362 12.9682C11.1866 12.9682 11.2539 13.2058 11.2694 13.3243C11.3158 13.6795 11.2118 14.0654 11.1694 14.4176C11.1119 14.8947 11.0718 15.401 11.1694 15.8754C11.3414 16.7112 11.7131 17.4743 11.7503 18.3456C11.7703 18.8133 11.6387 19.5913 11.0393 19.5933C10.3672 19.5955 10.3245 18.8018 10.3269 18.3051C10.331 17.4365 10.7298 16.6659 10.9003 15.8349C10.9959 15.3688 10.9515 14.8852 10.8922 14.4176C10.849 14.0774 10.731 13.6647 10.7874 13.3243C10.8084 13.1972 10.8754 12.9682 11.0362 12.9682ZM33.0085 12.9567C33.1585 12.9349 33.233 13.1723 33.2584 13.2838C33.3332 13.6115 33.2049 14.0071 33.1687 14.3366C33.1142 14.8332 33.0509 15.3402 33.1537 15.8349C33.3229 16.6496 33.7169 17.4134 33.7209 18.2646C33.7232 18.7574 33.7209 19.5017 33.0876 19.5859C32.4775 19.667 32.2875 18.897 32.2965 18.4265C32.3146 17.485 32.7457 16.659 32.9049 15.7539C32.9742 15.3597 32.9285 14.934 32.8926 14.5391C32.8572 14.1488 32.7275 13.7153 32.7784 13.3243C32.7946 13.1996 32.8618 12.9779 33.0085 12.9567ZM22.0437 21.909C21.5707 21.5291 21.8405 20.7286 21.9081 20.2083C22.0513 19.1062 21.5898 18.1876 21.3949 17.1307C21.3099 16.6695 21.2281 16.0245 21.4497 15.5925C21.7166 15.0725 22.38 15.1212 22.6215 15.6325C22.8592 16.136 22.733 16.8119 22.6206 17.3332C22.4861 17.9571 22.152 18.598 22.1244 19.2364C22.0909 20.012 22.5558 21.2882 22.0437 21.909ZM4.07256 19.8438C3.81802 19.906 3.56849 19.8999 3.3642 20.0954C2.95713 20.4851 2.97786 21.28 3.40333 21.6446C3.74307 21.9357 4.39282 21.9403 4.62673 21.5041C4.20514 21.6029 3.8322 21.126 4.10038 20.7365C4.40663 20.2917 4.94721 20.6064 5.09649 21.0182C5.26308 21.4777 5.01616 21.9867 4.70431 22.3134C4.20744 22.8339 3.45394 22.8175 2.80587 22.6515C2.55332 22.5868 2.15621 22.4397 2.16004 22.1115C2.16293 21.8634 2.42167 21.8022 2.52878 21.6256C2.31598 21.5807 2.11439 21.5213 1.89544 21.5635C1.09843 21.717 0.855603 22.6509 0.193333 23.0024V23.0429C0.78492 23.3927 1.0327 24.1858 1.69752 24.4375C1.93357 24.5269 2.36888 24.5774 2.52878 24.3387C2.06462 24.1964 2.08395 23.7397 2.4892 23.5217C3.03259 23.2293 4.04793 23.1832 4.54753 23.5851C4.93066 23.8933 5.26628 24.4744 5.11619 24.9867C4.99133 25.413 4.4642 25.7648 4.12414 25.3488C3.79318 24.9439 4.20086 24.4954 4.62673 24.5411C4.41199 24.1794 3.80016 24.1075 3.47883 24.3556C2.95638 24.7591 2.91041 25.7087 3.51841 26.065C3.68653 26.1636 3.88204 26.193 4.07256 26.2014C3.66205 26.8183 4.37262 26.9271 4.82465 26.7494C5.92838 26.3156 5.83202 25.1391 5.61633 24.1767C6.37628 24.9476 7.46761 24.715 8.34762 25.27C8.4848 24.7953 8.28127 24.1034 7.79345 23.9337V23.8932C8.33187 23.835 8.90361 24.0851 9.21847 24.5411C9.56036 24.3691 9.5858 23.9597 9.41639 23.6503C9.76854 23.6426 9.99864 23.4621 10.2872 23.2783C10.371 23.225 10.5874 23.137 10.5674 23.0068C10.5499 22.8921 10.3702 22.833 10.2872 22.7811C9.99608 22.5989 9.77137 22.4115 9.41639 22.395C9.6034 22.0826 9.50801 21.8378 9.33722 21.5446C8.76887 21.72 8.48545 22.2815 7.79345 22.152V22.1115C8.28957 21.9481 8.48563 21.2528 8.34762 20.7752C7.47893 21.3605 6.38544 21.0985 5.61633 21.8685C5.81535 20.9804 5.94706 19.871 4.98299 19.3732C4.5624 19.156 3.60659 19.1435 4.07256 19.8438ZM16.4623 21.909C15.8135 21.2457 15.1775 21.3776 14.3644 21.1427C14.108 21.0687 13.9264 20.8851 13.6914 20.7752C13.6914 21.2723 13.6937 21.9676 14.2852 22.1115V22.152C13.7489 22.2535 13.1315 21.9544 12.8206 21.5041C12.5357 21.7206 12.47 22.0703 12.6227 22.395C12.2745 22.4241 12.0403 22.6105 11.7518 22.7916C11.6707 22.8426 11.4864 22.9192 11.4884 23.0385C11.4904 23.1521 11.6745 23.2162 11.7519 23.2637C12.0446 23.4433 12.2677 23.6425 12.6227 23.6503C12.5004 23.9936 12.5172 24.3105 12.8206 24.5411C13.1732 24.0717 13.7191 23.8595 14.2852 23.8932V23.9337C13.706 24.1229 13.6914 24.7484 13.6914 25.27C13.9411 25.1564 14.13 24.9709 14.404 24.9015C15.0487 24.7381 16.0814 24.8788 16.4227 24.1362H16.4623C16.2663 25.0029 16.0727 26.0141 16.9373 26.6021C17.3531 26.8848 18.4511 27.014 18.0061 26.2014C18.1948 26.193 18.3925 26.1577 18.5601 26.063C19.7407 25.3961 18.3462 23.3882 17.4123 24.5411C17.8613 24.4929 18.2872 24.9682 17.9113 25.3824C17.5322 25.8001 17.0182 25.3229 16.9247 24.9056C16.8099 24.393 17.1874 23.8413 17.5707 23.5514C18.07 23.1736 19.1602 23.2281 19.667 23.5747C20.021 23.8168 19.9149 24.2551 19.5103 24.3387C19.6677 24.5694 20.111 24.5314 20.3415 24.4412C21.0227 24.1746 21.2624 23.3734 21.8853 23.0429V23.0024C21.052 22.6414 20.6667 21.0723 19.5103 21.6661V21.7066C19.9872 21.9052 20.0004 22.344 19.5103 22.5618C18.8814 22.8413 17.8919 22.8896 17.3796 22.3507C17.0619 22.0164 16.7845 21.4872 16.9596 21.0182C17.1093 20.6173 17.6686 20.2784 17.9661 20.7389C18.2141 21.1227 17.8697 21.6011 17.4519 21.5041C17.6556 21.9052 18.2729 21.9522 18.5997 21.6906C19.0797 21.3064 19.1419 20.5225 18.6773 20.0954C18.4758 19.9102 18.2543 19.9044 18.0061 19.8438C18.4167 19.0939 17.4333 19.1695 17.0165 19.4121C16.1058 19.9421 16.2198 21.0349 16.4623 21.909ZM26.0416 19.8438C25.7985 19.9037 25.567 19.9154 25.3704 20.0954C24.9157 20.512 24.9665 21.3154 25.448 21.684C25.7831 21.9404 26.3892 21.9174 26.5958 21.5041C26.1591 21.5999 25.8179 21.074 26.113 20.7029C26.4603 20.2661 27.0004 20.6804 27.1187 21.0991C27.2455 21.5479 26.964 22.0394 26.6681 22.3507C26.1891 22.8546 25.3866 22.8099 24.7749 22.6426C24.5281 22.5751 24.1451 22.4322 24.1512 22.1115C24.1563 21.8404 24.4233 21.8118 24.5374 21.6256C23.4177 21.3893 22.908 22.3057 22.202 23.0429C22.7356 23.4588 23.0598 24.1882 23.7062 24.4412C23.9367 24.5314 24.3801 24.5694 24.5374 24.3387C24.2028 24.2492 24.0053 23.9046 24.3074 23.6313C25.1288 22.8883 26.6557 23.3422 27.0574 24.2982C27.1898 24.6132 27.1817 24.9896 26.9696 25.2684C26.7579 25.5466 26.3452 25.6635 26.1071 25.3466C25.7929 24.9286 26.2117 24.4956 26.6354 24.5411C25.7101 23.3987 24.3169 25.3684 25.4876 26.0583C25.6553 26.1571 25.8511 26.1929 26.0416 26.2014C25.6706 27.0148 26.6681 26.9029 27.1104 26.6021C27.9335 26.0423 27.848 24.9762 27.5854 24.1362H27.625C28.003 24.8753 28.9775 24.7326 29.6438 24.9015C29.9177 24.9709 30.1066 25.1564 30.3563 25.27C30.3563 24.7404 30.3482 24.1796 29.8021 23.9337C30.299 23.7411 30.9341 24.151 31.2271 24.5411C31.5344 24.3076 31.5735 23.9934 31.425 23.6503C31.7857 23.6424 32.0012 23.4491 32.2959 23.2641C32.3785 23.2123 32.5854 23.1395 32.566 23.0092C32.5501 22.902 32.3734 22.8399 32.2959 22.7905C32.0085 22.6073 31.7733 22.4241 31.425 22.395C31.5889 22.0609 31.5255 21.7309 31.2271 21.5041C30.939 21.9213 30.3104 22.2743 29.8021 22.152C30.3223 21.8136 30.3563 21.3553 30.3563 20.7752C30.1435 20.8992 29.9614 21.0571 29.7229 21.1312C28.9054 21.3851 28.2445 21.2367 27.5854 21.909C27.8879 20.9413 27.892 19.722 26.7937 19.2958C26.3386 19.1192 25.7163 19.2496 26.0416 19.8438ZM38.4314 21.8685C37.6686 21.0948 36.5685 21.3603 35.7001 20.7752C35.5717 21.3268 35.794 21.8527 36.2543 22.152C35.748 22.2739 35.1396 21.9431 34.8293 21.5446C34.4936 21.7087 34.4492 22.0909 34.6313 22.395C34.2817 22.4242 34.0524 22.603 33.7605 22.7816C33.6773 22.8324 33.4979 22.8925 33.4803 23.0067C33.4619 23.1263 33.6442 23.1987 33.7209 23.2479C34.0204 23.4399 34.2649 23.6423 34.6313 23.6503C34.4707 23.9638 34.484 24.3674 34.8293 24.5411C35.1058 24.1406 35.7656 23.7331 36.2543 23.9337C35.7685 24.1523 35.5819 24.7618 35.7001 25.27C36.58 24.7151 37.6744 24.9489 38.4314 24.1767C38.2557 25.0476 38.0879 26.0866 38.9856 26.6325C39.3979 26.8833 40.4818 26.9627 39.9752 26.2014C40.1627 26.1974 40.3633 26.1739 40.5294 26.0763C41.7394 25.3655 40.3022 23.3925 39.421 24.5411C39.8444 24.4957 40.2505 24.9294 39.9414 25.3434C39.6242 25.7683 39.0875 25.4308 38.9503 25.0271C38.788 24.5497 39.0584 24.0255 39.385 23.6945C39.8893 23.1835 41.0034 23.1881 41.5981 23.5435C41.9912 23.7784 41.9569 24.2052 41.5189 24.3387C41.6789 24.5774 42.1141 24.5269 42.3502 24.4375C43.0013 24.191 43.2993 23.4307 43.8544 23.0429C43.1376 22.3319 42.6303 21.391 41.5189 21.6256C41.6259 21.8019 41.8914 21.8653 41.8973 22.1115C41.9052 22.4397 41.4921 22.591 41.2419 22.6519C40.6006 22.808 39.8329 22.8415 39.3455 22.3134C39.0386 21.9808 38.785 21.4815 38.9513 21.0182C39.1018 20.5986 39.6375 20.2999 39.9493 20.7365C40.2249 21.1224 39.8377 21.6017 39.421 21.5041C39.6518 21.9344 40.3079 21.9352 40.6465 21.6502C41.117 21.2544 41.0985 20.3456 40.5688 20.0056C40.397 19.8953 40.2112 19.8849 40.0148 19.8843C40.0561 19.7359 40.1641 19.5592 40.1035 19.4028C40.0373 19.2321 39.8486 19.237 39.6981 19.2364C39.2752 19.2348 38.9197 19.3957 38.6367 19.7225C38.1072 20.3339 38.2709 21.1524 38.4314 21.8685ZM1.14335 23.0834C1.39196 22.5511 2.16286 22.8318 2.60795 22.8829C3.07934 22.937 3.56499 22.9995 4.03297 22.885C4.96993 22.6556 6.32091 21.9263 7.27886 22.4288C7.78173 22.6926 7.79223 23.3638 7.27886 23.6277C6.76781 23.8904 6.10568 23.7463 5.57675 23.627C4.96327 23.4886 4.34641 23.1539 3.7163 23.1254C2.93421 23.0901 1.82001 23.5356 1.14335 23.0834ZM20.9353 23.0024C20.5746 23.4979 19.8564 23.2093 19.3519 23.1613C18.9661 23.1246 18.5506 23.0795 18.1644 23.1416C17.5334 23.2432 16.9361 23.5441 16.304 23.666C15.8055 23.7622 15.1842 23.8773 14.7212 23.5951C14.2515 23.3087 14.3091 22.6427 14.8 22.4164C15.3448 22.1652 16.1069 22.3293 16.6602 22.4708C17.2897 22.6318 17.8742 22.8754 18.5207 22.9503C19.2811 23.0383 20.2887 22.4603 20.9353 23.0024ZM28.1396 22.3256C28.5164 22.2782 29.0367 22.2576 29.3651 22.4814C29.8452 22.8085 29.6971 23.4403 29.2083 23.6551C28.2417 24.0801 27.0126 23.4275 26.0812 23.1837C25.5621 23.0478 24.9817 23.1237 24.4583 23.1934C24.1504 23.2345 23.7754 23.3457 23.4687 23.2632C23.3645 23.2352 23.1688 23.1488 23.1885 23.0082C23.2438 22.6132 24.0348 22.8088 24.2604 22.8404C24.8202 22.9188 25.4016 23.0068 25.9625 22.9026C26.7015 22.7653 27.3831 22.4206 28.1396 22.3256ZM42.9044 23.0834C42.2314 23.537 41.1132 23.0901 40.3314 23.1254C39.7086 23.1536 39.0796 23.4897 38.471 23.627C37.9508 23.7443 37.3156 23.8824 36.8085 23.6426C36.28 23.3927 36.2407 22.7068 36.7689 22.4288C37.7285 21.9238 39.0772 22.6554 40.0148 22.885C40.4827 22.9996 40.9684 22.9371 41.4398 22.8829C41.8849 22.8318 42.6558 22.5512 42.9044 23.0834ZM22.0041 23.1643C21.7266 23.8971 20.7317 24.09 20.5919 24.9461C20.5551 25.1719 20.6096 25.3764 20.6582 25.594C20.8341 25.4714 20.873 25.2102 21.1332 25.2031C21.4435 25.1946 21.5896 25.5867 21.6519 25.8369C21.8086 26.4659 21.849 27.2794 21.367 27.777C21.0674 28.0864 20.5812 28.3633 20.1436 28.2346C19.7293 28.1128 19.3207 27.5669 19.7562 27.2058C20.1547 26.8755 20.6164 27.2951 20.5395 27.7402C21.6321 26.8749 19.8867 25.4091 19.1001 26.5255C18.9734 26.7053 18.9431 26.9185 18.9165 27.1328C18.1463 26.765 18.2375 27.7787 18.525 28.2261C19.0669 29.0694 20.1195 28.9835 20.9353 28.712C20.2867 29.376 20.4105 30.0246 20.1861 30.8582C20.1167 31.1162 19.9539 31.3185 19.827 31.5466C20.3196 31.5466 20.9409 31.5583 21.1332 30.9797H21.1728C21.2654 31.5139 20.9635 32.1311 20.5395 32.4375C20.7646 32.7475 21.0795 32.8098 21.4103 32.64C21.4265 33.0033 21.7354 33.72 22.0832 33.8548C22.3011 33.4733 22.618 33.0946 22.6374 32.64C22.9692 32.8103 23.2854 32.7515 23.5083 32.4375C23.1327 32.1661 22.6981 31.4603 22.9145 30.9797C23.152 31.5317 23.7031 31.565 24.2208 31.5466C24.103 31.3102 23.9413 31.1204 23.8708 30.8582C23.6474 30.0284 23.7559 29.3707 23.1124 28.712C23.9321 28.9801 24.9791 29.0722 25.5228 28.2261C25.8125 27.7752 25.9176 26.7573 25.1312 27.1328C25.1164 26.9419 25.0907 26.7288 24.9846 26.5659C24.2133 25.3804 22.4136 26.8614 23.5083 27.7402C23.4645 27.3133 23.8876 26.8715 24.2925 27.1997C24.7195 27.5458 24.3516 28.094 23.9437 28.2239C23.4769 28.3725 22.9595 28.0775 22.6447 27.7365C22.1574 27.2086 22.1931 26.0751 22.5397 25.4731C22.7698 25.0735 23.1902 25.1814 23.3103 25.594C23.5405 25.4297 23.4912 24.9836 23.4074 24.7436C23.1839 24.104 22.4287 23.6619 22.0041 23.1643ZM0.0349952 23.2048C0.0349952 23.4849 -0.0158272 23.8228 0.0474262 24.0957C0.103689 24.3384 0.271753 24.4743 0.272193 24.7436C0.273492 25.5379 0.030194 26.2909 0.159489 27.0923C0.272342 27.7917 0.594905 28.4473 0.697171 29.1575C0.789549 29.799 0.802799 30.6694 0.0349952 30.8582V33.8548C0.34411 33.5837 0.625328 33.0577 0.628754 32.64C0.947038 32.7653 1.32223 32.8064 1.4996 32.4375C1.05422 32.0828 0.866318 31.5399 0.866258 30.9797C1.30834 31.4552 1.60922 31.5584 2.25169 31.5466C1.68355 30.6642 1.92497 29.5281 1.18293 28.7525C2.09079 28.8892 3.11046 29.1111 3.62217 28.0641C3.84548 27.6072 3.79833 26.6873 3.12254 27.1733C3.12169 26.8572 3.06247 26.5519 2.80428 26.3454C2.19816 25.8607 1.08777 26.2587 1.19029 27.1328C1.21663 27.3573 1.341 27.5556 1.46002 27.7402H1.4996C1.50081 27.3089 1.91181 26.8387 2.32558 27.225C2.72204 27.5952 2.30982 28.1472 1.89544 28.2452C1.38742 28.3653 0.818492 27.9854 0.535261 27.5782C0.181754 27.07 0.262063 26.1855 0.473167 25.6345C0.675703 25.1058 1.10589 25.1102 1.34126 25.594H1.38085C1.82036 24.5301 0.622556 23.871 0.0349952 23.2048ZM43.9336 23.2858C43.5525 23.8392 42.7999 24.1293 42.6177 24.8246C42.5565 25.0579 42.5216 25.4493 42.746 25.594C42.8339 25.1489 43.2682 25.0991 43.4983 25.4727C43.8251 26.0032 43.8745 27.0585 43.5125 27.5782C43.2299 27.9839 42.6992 28.3459 42.1919 28.2533C41.778 28.1776 41.3397 27.658 41.6929 27.2629C42.089 26.8197 42.5469 27.2878 42.5481 27.7402C43.6691 26.7637 41.6644 25.36 41.0374 26.6064C40.9539 26.7724 40.9289 26.9487 40.9252 27.1328C40.0517 26.7687 40.2331 27.9017 40.6158 28.3476C41.2348 29.0686 42.0495 28.9247 42.8648 28.7525C42.1198 29.5313 42.3812 30.6704 41.796 31.5466C42.33 31.5564 42.8801 31.542 43.1419 30.9797H43.1815C43.1815 31.5425 42.9953 32.0815 42.5481 32.4375C42.7306 32.8027 43.0999 32.7657 43.419 32.64C43.4229 33.0852 43.7213 33.4427 43.9336 33.8143H43.9731V31.8706C43.9731 31.5928 44.0388 31.2149 43.9606 30.9483C43.9099 30.7758 43.6254 30.6772 43.5137 30.5337C43.3091 30.2708 43.2821 29.8855 43.3038 29.5624C43.3661 28.6311 43.8129 27.8002 43.9222 26.8898C44.0096 26.1622 43.7743 25.463 43.7755 24.7436C43.7763 24.2564 44.1463 23.8044 43.9336 23.2858ZM10.4456 24.6626C10.1235 24.5358 9.7548 24.4906 9.57472 24.8651C9.97015 25.1874 10.2904 25.7977 10.1685 26.3229C9.85636 25.8205 9.37938 25.6844 8.82263 25.756C9.39504 26.6451 9.14063 27.7653 9.89139 28.5501C9.14812 28.3931 8.32582 28.2155 7.71797 28.8373C7.50203 29.0582 6.9981 30.0581 7.48206 30.2606C7.63544 30.3248 7.80862 30.2185 7.95178 30.1698C7.95232 30.3708 7.96252 30.5608 8.07032 30.7366C8.42425 31.3137 9.32208 31.2887 9.71195 30.7766C9.97557 30.4304 9.9376 29.7883 9.53514 29.5624C9.63441 29.9952 9.17525 30.4065 8.78478 30.1085C8.34064 29.7695 8.68942 29.2248 9.09971 29.0752C9.53347 28.9172 10.0181 29.1877 10.3262 29.4852C10.8394 29.9807 10.8288 30.7701 10.6641 31.4251C10.5993 31.6832 10.4529 32.1038 10.1289 32.0956C9.8882 32.0896 9.82624 31.818 9.65389 31.7086C9.43753 32.8499 10.3398 33.3597 11.0393 34.0977C11.4334 33.5374 12.1565 33.2245 12.4062 32.559C12.4943 32.3242 12.5399 31.8594 12.306 31.7086C12.2258 32.114 11.8185 32.2087 11.5796 31.8699C11.1897 31.317 11.1701 30.127 11.612 29.6065C11.9173 29.247 12.421 28.9442 12.8998 29.0574C13.3159 29.1558 13.7228 29.7023 13.3267 30.0729C12.9207 30.4527 12.4889 29.9995 12.5039 29.5624C11.3828 30.5128 13.3534 31.9306 14.0114 30.6961C14.1062 30.5184 14.1253 30.3278 14.1269 30.1293C14.7604 30.5849 14.8304 29.7788 14.651 29.3194C14.2281 28.2369 13.0028 28.2928 12.1081 28.5906V28.5501C12.83 28.1341 12.7018 27.1468 12.8697 26.4444C12.9328 26.1801 13.1116 25.9969 13.2164 25.756C12.7174 25.6615 12.1284 25.8157 11.9102 26.3229H11.8706C11.8706 25.7638 12.0371 25.2044 12.5039 24.8651C12.3292 24.5155 11.9404 24.4978 11.6331 24.6626C11.6299 24.2984 11.4485 24.0713 11.2699 23.7718C11.2177 23.6842 11.1556 23.5047 11.0394 23.4898C10.9164 23.474 10.843 23.6891 10.7926 23.7718C10.6212 24.0534 10.3917 24.3099 10.4456 24.6626ZM32.4146 24.6626C32.1073 24.4978 31.7186 24.5155 31.5438 24.8651C31.9349 25.1493 32.3228 25.823 32.1376 26.3229C31.9193 25.8157 31.3303 25.6615 30.8313 25.756C30.949 25.9922 31.1115 26.182 31.1812 26.4444C31.4031 27.2785 31.292 27.9275 31.9396 28.5906C31.0096 28.2811 29.759 28.2526 29.3707 29.4004C29.2121 29.8692 29.338 30.5485 29.9209 30.1293C29.9247 30.3212 29.9478 30.5264 30.0431 30.6962C30.7465 31.9492 32.6646 30.4623 31.5438 29.5624C31.5882 29.9956 31.1643 30.411 30.7596 30.0947C30.3297 29.7588 30.7014 29.194 31.1084 29.0684C31.5798 28.9229 32.0931 29.2245 32.4073 29.566C32.8756 30.0751 32.8514 31.2068 32.519 31.7896C32.2882 32.1942 31.8735 32.1612 31.7417 31.7086C31.5119 31.8697 31.5519 32.3205 31.6415 32.559C31.8935 33.2301 32.6258 33.5247 33.0084 34.0977C33.7049 33.3629 34.6236 32.8482 34.3938 31.7086C34.2215 31.818 34.1595 32.0896 33.9188 32.0956C33.5923 32.1038 33.451 31.6851 33.3906 31.4251C33.2378 30.7681 33.2024 29.9866 33.7215 29.4852C34.0433 29.1744 34.5387 28.9133 34.9876 29.0819C35.3999 29.2367 35.6845 29.7872 35.2629 30.1085C34.8737 30.4052 34.4157 29.9948 34.5126 29.5624C34.1094 29.7887 34.091 30.428 34.3399 30.7766C34.7258 31.317 35.6767 31.302 36.0003 30.6962C36.0958 30.5174 36.0958 30.327 36.0959 30.1293C36.8522 30.6154 36.8267 29.5825 36.552 29.117C36.0158 28.2082 35.0049 28.3709 34.1563 28.5501C34.9127 27.7697 34.6532 26.6443 35.2251 25.756C34.6683 25.6844 34.1914 25.8205 33.8792 26.3229C33.793 25.9479 33.9483 25.5413 34.152 25.2296C34.225 25.1178 34.3915 24.9903 34.4213 24.8584C34.51 24.4659 33.8049 24.5751 33.6417 24.6626C33.6132 24.3049 33.4383 24.0704 33.2638 23.7718C33.2141 23.6866 33.1554 23.5031 33.0437 23.4851C32.9269 23.4663 32.8561 23.6527 32.8079 23.7313C32.6203 24.0376 32.4224 24.2877 32.4146 24.6626ZM22.0097 24.214C22.1469 24.1937 22.2207 24.3974 22.2499 24.5006C22.3378 24.8112 22.2271 25.1994 22.1852 25.513C22.1228 25.9807 22.069 26.5002 22.1347 26.9708C22.2592 27.8623 22.644 28.6918 22.7448 29.6029C22.7973 30.0766 22.6286 30.7726 22.0832 30.8433C21.4181 30.9295 21.3311 30.1157 21.3311 29.6434C21.3311 28.7365 21.7241 27.9613 21.8929 27.0923C21.9773 26.6578 21.9376 26.1925 21.8919 25.756C21.8537 25.3909 21.7178 24.9452 21.7796 24.5816C21.7998 24.4633 21.8697 24.2347 22.0097 24.214ZM10.9602 26.4583C11.6004 26.3582 11.7625 27.1809 11.7513 27.6592C11.7294 28.5848 11.2996 29.4004 11.1429 30.2913C11.0651 30.7333 11.1168 31.2266 11.1749 31.6681C11.2202 32.0129 11.3288 32.4148 11.2634 32.7614C11.2427 32.8709 11.1728 33.077 11.0362 33.077C10.8753 33.077 10.8084 32.848 10.7873 32.7209C10.7294 32.3707 10.8501 31.9382 10.8923 31.5871C10.9491 31.1138 10.9926 30.6415 10.8941 30.1698C10.7264 29.3672 10.3367 28.6203 10.327 27.7807C10.3211 27.2782 10.3304 26.5567 10.9602 26.4583ZM32.9292 26.4579C33.609 26.3418 33.7209 27.1711 33.7209 27.6592C33.7209 28.5791 33.3023 29.3679 33.1455 30.2508C33.0631 30.7152 33.1216 31.1632 33.1638 31.6276C33.195 31.9714 33.3276 32.379 33.2668 32.721C33.2443 32.8473 33.1697 33.077 33.0115 33.077C32.8611 33.077 32.7938 32.8394 32.7784 32.721C32.7288 32.3402 32.8571 31.9264 32.8896 31.5466C32.9236 31.1501 32.9729 30.7288 32.9118 30.3318C32.774 29.4361 32.3877 28.6182 32.3026 27.6997C32.26 27.2403 32.3998 26.5483 32.9292 26.4579ZM1.14335 28.7255L1.15654 28.739C1.13701 28.7457 1.11273 28.7255 1.14335 28.7255ZM42.9044 28.7255C42.935 28.7255 42.9107 28.7457 42.8912 28.739L42.9044 28.7255ZM5.45799 33.1259C4.84543 32.5045 4.21205 32.5969 3.43921 32.4011C3.15699 32.3296 2.94812 32.1448 2.68712 32.0326C2.68712 32.5589 2.72695 33.1465 3.28088 33.3689V33.4094C2.69945 33.4094 2.20366 33.2269 1.81627 32.7615H1.77669C1.54203 33.0291 1.4537 33.3358 1.65794 33.6523C1.29862 33.6554 1.08274 33.827 0.78709 34.0141C0.702477 34.0677 0.495586 34.1387 0.495586 34.2641C0.495586 34.3978 0.697106 34.4652 0.78709 34.5215C1.05042 34.6862 1.28794 34.9215 1.61835 34.8671C1.53718 35.181 1.46168 35.6386 1.85586 35.758C2.14536 35.3411 2.78089 35.0292 3.28088 35.1506C2.73448 35.4487 2.68712 35.9495 2.68712 36.5274C2.95117 36.4037 3.14548 36.205 3.43921 36.1321C4.09707 35.9689 5.02719 36.1041 5.41841 35.3936H5.45799C5.26257 36.2656 5.10331 37.2269 5.933 37.8317C6.38781 38.1633 7.40596 38.2364 7.00177 37.4183C7.20011 37.4177 7.37696 37.401 7.55579 37.3039C8.1385 36.9873 8.12615 36.0172 7.63154 35.628C7.29364 35.3621 6.66397 35.3725 6.44759 35.7985C6.8656 35.7006 7.23448 36.1771 6.96695 36.5637C6.63247 37.0469 6.07032 36.6259 5.94174 36.2034C5.79863 35.7333 6.11622 35.1843 6.45113 34.8805C6.96498 34.4143 7.90779 34.4671 8.50595 34.7246C9.01498 34.9436 8.9854 35.3963 8.50595 35.596V35.6365C9.56236 36.1015 10.2111 34.8701 10.881 34.2597C10.2602 33.8561 9.44326 32.2099 8.50595 32.9234C8.99179 33.161 9.00219 33.6205 8.46637 33.826C7.92342 34.0343 7.06293 34.1105 6.56634 33.748C6.17258 33.4605 5.81064 32.865 5.93474 32.3565C6.03606 31.9414 6.5486 31.5219 6.91359 31.9165C7.28699 32.3202 6.88561 32.7763 6.44759 32.7615C6.67957 33.1495 7.30797 33.1743 7.6345 32.9075C8.12658 32.5054 8.12785 31.5635 7.55591 31.2263C7.39015 31.1285 7.18914 31.1052 7.00177 31.1012C7.46405 30.2609 6.30932 30.4222 5.89345 30.7282C5.09257 31.3175 5.26931 32.2915 5.45799 33.1259ZM15.0769 31.1012C14.8829 31.1028 14.6966 31.1224 14.5229 31.2193C13.3129 31.8942 14.7033 33.9068 15.6311 32.7615C15.2038 32.7759 14.7626 32.3331 15.1321 31.9197C15.4943 31.5146 16.0285 31.9309 16.1247 32.3565C16.2354 32.8463 15.9394 33.3616 15.5879 33.6739C15.0792 34.1259 13.9159 34.1059 13.3754 33.707C13.0443 33.4627 13.1368 33.046 13.5331 32.9639C13.3857 32.7246 12.9314 32.7713 12.7018 32.8614C12.0512 33.1169 11.7454 33.8566 11.1977 34.2597C11.9191 34.9753 12.4174 35.8984 13.5331 35.677C13.4262 35.5007 13.1607 35.4373 13.1548 35.1911C13.1468 34.8596 13.5579 34.7099 13.8102 34.6436C14.4505 34.4751 15.2221 34.4643 15.7065 34.9892C15.9974 35.3044 16.2618 35.8002 16.1073 36.2439C15.9611 36.6637 15.4286 37.0205 15.0972 36.5661C14.8059 36.1667 15.208 35.697 15.6311 35.7985C15.4103 35.3868 14.7826 35.3479 14.4441 35.6176C13.9436 36.0165 13.9192 36.9349 14.4833 37.297C14.6551 37.4073 14.8408 37.4177 15.0373 37.4183C14.9897 37.5647 14.8858 37.7419 14.9485 37.8988C15.1465 38.3939 16.1239 37.8784 16.3399 37.6575C16.9477 37.0356 16.7741 36.1944 16.6207 35.4341C17.3878 36.2021 18.4828 35.9418 19.3519 36.5274C19.4219 35.9578 19.2888 35.4699 18.7978 35.1506C19.3112 35.0259 19.9078 35.3535 20.2228 35.758C20.5889 35.5738 20.5447 35.1966 20.4207 34.8671C20.7655 34.9223 21.0163 34.6875 21.2915 34.5121C21.3724 34.4606 21.5826 34.3855 21.5672 34.2596C21.5526 34.1408 21.3771 34.0772 21.2916 34.0239C20.9987 33.8411 20.7768 33.6556 20.4207 33.6523C20.5818 33.3379 20.5646 32.9402 20.2228 32.7615C19.8911 33.2391 19.3443 33.4094 18.7978 33.4094V33.3689C19.2935 33.1456 19.4443 32.5431 19.3519 32.0326C19.1164 32.1398 18.9373 32.3227 18.679 32.3873C17.9924 32.5591 17.0273 32.4279 16.6207 33.1664C16.647 32.2599 17.0406 31.4501 16.1852 30.7521C15.7931 30.4321 14.5139 30.282 15.0769 31.1012ZM27.4667 33.1664H27.4271C27.0569 32.4425 26.1079 32.5579 25.4479 32.4016C25.1551 32.3322 24.961 32.1533 24.6958 32.0326C24.6778 32.5621 24.7104 33.1259 25.25 33.3689V33.4094C24.692 33.4094 24.1764 33.2294 23.8249 32.7615C23.4877 32.9379 23.4738 33.3399 23.627 33.6523C23.2727 33.6556 23.0462 33.843 22.7562 34.0287C22.6728 34.082 22.495 34.1432 22.4805 34.2597C22.465 34.3851 22.6751 34.461 22.7562 34.5111C23.041 34.6869 23.2745 34.9064 23.627 34.8671C23.489 35.2337 23.4908 35.5445 23.8249 35.7985C24.0867 35.3552 24.7495 35.0291 25.25 35.1506C24.7312 35.4879 24.6728 35.9432 24.6958 36.5274C25.5879 35.9263 26.6819 36.1942 27.4667 35.3936C27.2184 36.1743 27.1071 37.1822 27.8235 37.7613C28.2824 38.1323 29.3671 38.314 29.0104 37.4183C29.3508 37.4173 29.6504 37.3277 29.8419 37.0133C30.2162 36.3986 29.8408 35.3739 29.05 35.4417C28.8137 35.462 28.6099 35.5872 28.4167 35.7175V35.758C28.8368 35.7595 29.2854 36.1849 28.9202 36.604C28.5538 37.0245 28.0212 36.5977 27.923 36.163C27.8084 35.6555 28.1568 35.1033 28.5354 34.8077C29.0402 34.4136 29.9183 34.4907 30.475 34.7235C30.9723 34.9315 31.0155 35.3754 30.5146 35.596V35.6365C31.5027 36.1314 32.2497 34.8552 32.8501 34.2597C32.3164 33.8438 31.9923 33.1144 31.3459 32.8614C31.1126 32.7701 30.6722 32.7286 30.5146 32.9639C30.9541 33.0547 30.993 33.4954 30.6332 33.7345C30.0767 34.1044 28.9717 34.1169 28.463 33.6657C28.1193 33.3609 27.8108 32.8389 27.9232 32.3565C28.0211 31.9356 28.5561 31.5176 28.9157 31.9197C29.2892 32.3377 28.8474 32.777 28.4167 32.7615C29.3455 33.9082 30.7455 31.9001 29.5249 31.2193C29.3512 31.1224 29.1648 31.1028 28.9708 31.1012C29.3638 30.5293 28.7613 30.3688 28.2979 30.5241C27.1478 30.9096 27.1621 32.1922 27.4667 33.1664ZM37.046 31.1012C36.8512 31.1053 36.6634 31.1363 36.4918 31.2375C35.9217 31.5737 35.9187 32.5034 36.4132 32.9075C36.7409 33.1753 37.3686 33.1515 37.6001 32.7615C37.1902 32.795 36.7901 32.352 37.1027 31.9558C37.4635 31.4985 38.0012 31.9195 38.1176 32.3565C38.2512 32.8581 37.8907 33.421 37.521 33.7175C37.0257 34.1146 36.1379 34.0395 35.5814 33.826C35.0541 33.6238 35.0596 33.1689 35.5418 32.9234C34.7819 32.345 34.0243 33.4119 33.5954 33.8953C33.4705 34.0361 33.3227 34.1526 33.2063 34.3002C33.9844 34.7982 34.4098 36.1348 35.5418 35.6365V35.596C35.0974 35.4109 35.0197 34.9776 35.5022 34.748C36.1351 34.4469 37.1544 34.4068 37.6724 34.9519C37.9764 35.2717 38.2574 35.7916 38.0994 36.2439C37.9621 36.6369 37.391 37.0356 37.0859 36.5637C36.8364 36.1776 37.1811 35.7003 37.6001 35.7985C37.3829 35.3638 36.7575 35.3605 36.4162 35.6336C35.9094 36.0392 35.9371 36.9435 36.4918 37.297C36.6642 37.4069 36.8491 37.4177 37.046 37.4183C36.663 38.2577 37.7086 38.1643 38.1543 37.8074C38.9481 37.1717 38.7867 36.2643 38.5897 35.3936C39.2341 36.0509 39.8818 35.9202 40.6877 36.1527C40.9443 36.2267 41.1336 36.3951 41.3606 36.5274C41.3606 35.9538 41.3254 35.4348 40.7669 35.1506C41.1422 35.0594 41.5171 35.2102 41.8356 35.4125C41.9568 35.4895 42.1188 35.7094 42.2673 35.7091C42.6151 35.7085 42.4851 35.0471 42.4294 34.8671C42.7744 34.9036 43.0235 34.6827 43.3002 34.5053C43.3826 34.4524 43.5521 34.3852 43.5521 34.2641C43.5521 34.1382 43.3448 34.0683 43.2606 34.0131C42.9655 33.8195 42.7524 33.6554 42.3898 33.6523C42.594 33.3358 42.5057 33.0291 42.271 32.7615H42.2315C41.8505 33.2298 41.3451 33.4094 40.7669 33.4094V33.3689C41.3356 33.1711 41.3606 32.5483 41.3606 32.0326C41.0996 32.1448 40.8907 32.3296 40.6085 32.4011C39.8359 32.5969 39.2013 32.5055 38.5897 33.1259C38.8619 32.2551 38.9107 31.1305 37.996 30.6284C37.5514 30.3844 36.6389 30.3578 37.046 31.1012ZM9.93098 34.2597C9.56407 34.7377 8.80829 34.4534 8.30803 34.3928C7.21742 34.2606 6.34721 34.6981 5.29966 34.9076C4.83696 35.0002 4.18666 35.1048 3.75591 34.8523C3.23831 34.5488 3.31082 33.8898 3.83505 33.6485C4.33641 33.4177 4.98365 33.5536 5.49758 33.6695C6.09796 33.805 6.70592 34.1312 7.31844 34.1751C8.07836 34.2296 9.32968 33.708 9.93098 34.2597ZM17.3332 33.5424C17.67 33.5016 18.1253 33.5243 18.4013 33.7493C18.8081 34.0808 18.7133 34.6712 18.2436 34.8862C17.2603 35.3363 16.0242 34.6499 15.0769 34.4176C14.5234 34.2819 13.9312 34.3605 13.3748 34.4389C13.0874 34.4794 12.7503 34.5802 12.4643 34.5003C12.3553 34.4698 12.1581 34.3766 12.2009 34.2267C12.3112 33.8409 13.1212 34.0666 13.3748 34.0957C13.8658 34.1522 14.3852 34.2405 14.879 34.161C15.7118 34.0269 16.4832 33.6453 17.3332 33.5424ZM26.2396 33.5424C27.279 33.4039 28.2155 34.0154 29.2083 34.1613C29.9456 34.2695 30.6564 34.0011 31.3855 34.0172C31.5868 34.0217 32.0697 34.1946 31.7392 34.4321C31.3106 34.7403 30.2594 34.379 29.7625 34.3442C28.4726 34.2539 27.2382 35.3428 25.9229 34.93C24.9593 34.6277 25.4704 33.6449 26.2396 33.5424ZM34.1168 34.3001C34.483 33.7958 35.1877 34.1013 35.7001 34.1371C36.163 34.1694 36.6281 34.2283 37.0855 34.1112C38.0176 33.8724 39.3916 33.1348 40.3308 33.7074C40.8318 34.0128 40.7115 34.6664 40.2127 34.8928C39.6913 35.1294 38.9619 34.9687 38.4314 34.8405C37.8211 34.693 37.2379 34.4088 36.6105 34.3474C35.8287 34.271 34.7885 34.822 34.1168 34.3001ZM10.9997 34.4216C10.5778 35.2875 9.18604 35.6447 9.69347 36.8512H9.73306C9.93065 36.3548 10.3773 36.332 10.5851 36.8512C10.8317 37.4673 10.8914 38.424 10.4326 38.9533C10.1356 39.2959 9.59883 39.6208 9.1393 39.4744C8.72637 39.3428 8.31484 38.7678 8.7872 38.4256C9.16501 38.1519 9.63087 38.5293 9.53514 38.9569C9.9516 38.7355 9.96174 38.0914 9.70181 37.7457C9.32132 37.2397 8.37303 37.2271 8.0636 37.8232C7.96864 38.0061 7.95233 38.1871 7.95178 38.39C7.15205 37.9765 7.2235 39.0181 7.5476 39.4833C8.13885 40.3321 9.07854 40.1692 9.93098 39.9692V40.0097C9.23644 40.41 9.3686 41.3615 9.209 42.0344C9.13774 42.3349 8.94355 42.5337 8.82263 42.8038C9.38755 42.8038 9.87703 42.7554 10.1685 42.1964C10.288 42.7114 9.98512 43.356 9.57472 43.6542C9.69141 44.0574 10.1388 43.9802 10.4456 43.8972C10.4104 44.2453 10.6166 44.4684 10.7835 44.7475C10.8385 44.8396 10.9044 45.0458 11.035 45.0458C11.1576 45.0458 11.227 44.8341 11.2794 44.7475C11.4623 44.4451 11.6301 44.2243 11.6331 43.8567C11.9425 44.0656 12.2423 43.9753 12.5039 43.7352V43.6947C12.0514 43.3005 11.8706 42.7897 11.8706 42.1964H11.9102C12.1275 42.7631 12.702 42.8038 13.2164 42.8038C13.1067 42.5368 12.9261 42.3232 12.8562 42.0344C12.6648 41.2438 12.7551 40.5959 12.1477 39.9692C12.9633 40.1623 13.9154 40.3431 14.4915 39.5238C14.7906 39.0983 14.9483 37.9171 14.1269 38.39C14.123 38.1983 14.1001 37.9927 14.0046 37.8231C13.675 37.238 12.7543 37.2393 12.3612 37.7427C12.1003 38.0767 12.1246 38.7196 12.5039 38.9569C12.4699 38.5243 12.8976 38.1253 13.2934 38.4479C13.715 38.7914 13.3526 39.3471 12.9394 39.471C12.4403 39.6206 11.8708 39.268 11.5694 38.8759C11.1806 38.3701 11.2549 37.4603 11.4633 36.8917C11.6673 36.335 12.1109 36.3491 12.3456 36.8512C12.9237 36.0564 11.8346 35.2677 11.3561 34.8196C11.225 34.6968 11.1269 34.5462 10.9997 34.4216ZM33.0084 34.4216C32.6323 35.0871 31.0131 35.8619 31.7021 36.8512C31.9416 36.3587 32.391 36.3442 32.5849 36.8917C32.7891 37.4682 32.8727 38.3629 32.4784 38.8759C32.1989 39.2395 31.6593 39.603 31.1875 39.4873C30.7546 39.3812 30.3016 38.8286 30.7563 38.4479C31.1489 38.1191 31.5774 38.5297 31.5438 38.9569C31.9298 38.7171 31.9518 38.0803 31.6867 37.7427C31.2915 37.2394 30.3843 37.2337 30.0541 37.8231C29.9578 37.995 29.9291 38.1951 29.9209 38.39C29.1703 37.9579 29.2278 38.9491 29.4837 39.4023C29.9957 40.3094 31.0613 40.2127 31.9001 39.9692C31.2969 40.5915 31.3849 41.2485 31.1917 42.0344C31.12 42.3259 30.942 42.5345 30.8313 42.8038C31.3309 42.8038 31.9469 42.7702 32.1376 42.1964H32.1771C32.2102 42.7767 31.9842 43.3198 31.5438 43.6947V43.7352C31.8034 43.9719 32.1093 44.0629 32.4146 43.8567C32.4178 44.2186 32.5882 44.4498 32.7683 44.7475C32.8207 44.8341 32.8901 45.0458 33.0127 45.0458C33.131 45.0458 33.1968 44.8724 33.2484 44.788C33.4278 44.4952 33.6134 44.2522 33.6417 43.8972C33.9707 44.0198 34.285 43.9914 34.5126 43.6947C34.0823 43.3565 33.7781 42.7557 33.8792 42.1964H33.9188C34.0567 42.7894 34.7457 42.8038 35.2251 42.8038C35.108 42.5348 34.9223 42.3291 34.8482 42.0344C34.687 41.3931 34.8257 40.3508 34.1168 40.0097V39.9692C34.9675 40.1688 35.9154 40.3312 36.5061 39.4833C36.8315 39.0162 36.8898 37.9795 36.0959 38.39C36.0959 38.1905 36.0959 38.0018 35.9957 37.8232C35.6554 37.2163 34.7012 37.2392 34.3236 37.7842C34.0856 38.1275 34.1151 38.7456 34.5126 38.9569C34.4122 38.5085 34.9297 38.1388 35.2968 38.4535C35.7174 38.8142 35.319 39.356 34.9084 39.4764C34.4541 39.6097 34.0037 39.3246 33.6882 39.0144C33.2014 38.5359 33.2262 37.7143 33.3942 37.0942C33.4618 36.8445 33.5924 36.4532 33.902 36.4443C34.1529 36.437 34.218 36.6991 34.3938 36.8107C34.6264 35.6573 33.6808 35.184 33.0084 34.4216ZM0.0349952 34.705V37.7016C0.80753 37.891 0.790805 38.7521 0.697171 39.4023C0.594921 40.1124 0.272409 40.7677 0.159489 41.4675C0.0321943 42.2565 0.267208 42.9943 0.272315 43.7757C0.274204 44.0648 0.107642 44.2043 0.0474262 44.4641C-0.0130464 44.7249 0.0349952 45.0468 0.0349952 45.3144H0.0745792C0.467965 44.7863 1.23361 44.4406 1.42892 43.7757C1.50069 43.5313 1.54292 43.1168 1.30168 42.9658C1.21558 43.402 0.776153 43.4548 0.549372 43.0871C0.22504 42.5612 0.177059 41.4967 0.535261 40.9816C0.820142 40.5719 1.34632 40.2149 1.85586 40.3065C2.27052 40.381 2.70899 40.9007 2.35484 41.2969C1.96323 41.735 1.50085 41.2663 1.4996 40.8196C0.388813 41.7872 2.37762 43.1818 3.01072 41.9534C3.10525 41.77 3.12199 41.5898 3.12254 41.3865C3.78438 41.8474 3.84012 41.0047 3.6419 40.5361C3.19825 39.4874 1.98886 39.5532 1.10376 39.8477V39.8073C1.83181 39.4198 1.70196 38.4307 1.86532 37.7421C1.9337 37.4538 2.09229 37.2519 2.25169 37.0132C1.62824 36.8948 1.2688 37.1455 0.866258 37.5801C0.866299 37.0173 1.05241 36.4782 1.4996 36.1223C1.32978 35.7691 0.935279 35.7555 0.628754 35.9198C0.625307 35.4995 0.346327 34.9778 0.0349952 34.705ZM21.4103 35.9198C21.0768 35.741 20.7633 35.805 20.5395 36.1223C20.9637 36.4289 21.2681 37.0468 21.1728 37.5801H21.1332C20.959 37.056 20.302 36.9233 19.827 37.0132C20.3683 37.9106 20.1461 39.0339 20.8957 39.8073C20.1299 39.692 19.355 39.4479 18.7202 40.0925C18.3275 40.4912 17.9868 41.8145 18.9165 41.427C18.943 41.6364 18.9786 41.8581 19.1005 42.0343C19.4561 42.5481 20.2973 42.5522 20.6823 42.0733C20.9658 41.7208 20.9469 41.0725 20.5395 40.8196C20.6114 41.2362 20.1778 41.662 19.7891 41.3657C19.3503 41.0312 19.6712 40.4591 20.104 40.3256C20.5773 40.1796 21.0904 40.4793 21.4062 40.8212C21.8518 41.3038 21.8189 42.1286 21.6464 42.7228C21.5738 42.9729 21.4471 43.3534 21.1332 43.3534C20.8729 43.3534 20.8327 43.0875 20.6582 42.9658C20.6098 43.1826 20.5535 43.3887 20.5921 43.6137C20.7319 44.4298 21.6336 44.6992 22.0041 45.3549H22.0437C22.4047 44.7644 23.1621 44.493 23.4069 43.8162C23.4933 43.5775 23.5392 43.1292 23.3103 42.9658C23.1902 43.3784 22.7698 43.4863 22.5397 43.0867C22.1792 42.4604 22.1635 41.3169 22.6807 40.7828C22.9938 40.4594 23.4877 40.1849 23.9437 40.3256C24.3506 40.4512 24.7224 41.016 24.2925 41.3519C23.9013 41.6576 23.4375 41.2603 23.5083 40.8196C22.3786 41.7265 24.3198 43.2074 25.0034 41.9534C25.0963 41.783 25.1231 41.5783 25.1312 41.3865C25.7084 41.8016 25.8366 41.1245 25.6813 40.6576C25.2982 39.5061 24.0369 39.5401 23.1124 39.8477C23.8943 39.0473 23.6618 37.9405 24.2208 37.0132C23.7457 36.9233 23.0887 37.056 22.9145 37.5801H22.8749C22.8117 37.0321 23.065 36.4426 23.5083 36.1223C23.313 35.7894 22.9533 35.7504 22.6374 35.9198C22.6215 35.5454 22.4322 35.2954 22.2441 34.9885C22.196 34.9099 22.1252 34.7235 22.0083 34.7423C21.8967 34.7603 21.838 34.9438 21.7882 35.029C21.6154 35.3246 21.4263 35.5626 21.4103 35.9198ZM43.9336 34.7455C43.7161 35.1262 43.4227 35.4626 43.419 35.9198C43.1124 35.7555 42.7179 35.7691 42.5481 36.1223C43.006 36.455 43.1815 37.0313 43.1815 37.5801H43.1419C42.901 37.0625 42.3151 36.9146 41.796 37.0132C41.9753 37.2816 42.1359 37.4971 42.205 37.823C42.3471 38.4935 42.2416 39.4314 42.944 39.8073V39.8477C42.0465 39.5491 40.8153 39.4929 40.3899 40.5766C40.2059 41.0454 40.2957 41.8249 40.9252 41.3865C40.9268 41.585 40.9459 41.7756 41.0406 41.9533C41.6978 43.1862 43.6601 41.7622 42.5481 40.8196C42.5468 41.2687 42.0867 41.7374 41.6929 41.2969C41.351 40.9144 41.7522 40.4092 42.1523 40.3146C42.639 40.1995 43.174 40.5234 43.4679 40.9042C43.8743 41.4308 43.8416 42.5298 43.4983 43.0871C43.2706 43.4569 42.833 43.4066 42.746 42.9658C42.5091 43.1141 42.5522 43.5373 42.6314 43.7757C42.8267 44.3636 43.5009 44.8748 43.9731 45.2335C43.9731 44.9762 44.0155 44.6752 43.9612 44.4236C43.9095 44.1842 43.7709 44.0377 43.7758 43.7757C43.7896 43.0464 44.0285 42.3249 43.9162 41.589C43.7674 40.6146 43.258 39.7293 43.3018 38.7139C43.3147 38.4132 43.4007 38.1198 43.6186 37.9084C43.7108 37.8189 43.8931 37.7622 43.9493 37.6441C44.0397 37.454 43.9731 37.1002 43.9731 36.8917V35.4339C43.9731 35.2172 44.0161 34.9467 43.9336 34.7455ZM11.0393 35.3934C11.5786 36.0085 11.0688 37.2886 11.122 38.066C11.165 38.6926 11.4839 39.3146 11.6163 39.9287C11.7296 40.4545 11.8624 41.1166 11.6368 41.6295C11.401 42.1658 10.7567 42.2399 10.4601 41.7104C10.2133 41.2698 10.3155 40.6045 10.406 40.1312C10.6108 39.0596 11.0384 38.1693 10.9093 37.0537C10.85 36.5419 10.5722 35.7687 11.0393 35.3934ZM33.048 35.3934C33.5798 36.0573 33.0093 37.1195 33.0989 37.904C33.1725 38.5492 33.4143 39.1394 33.5676 39.7668C33.7017 40.3156 33.8685 41.0897 33.6278 41.6295C33.3942 42.1533 32.7353 42.2433 32.4509 41.7103C32.1873 41.2164 32.3129 40.5705 32.4146 40.0502C32.6242 38.9783 32.9941 38.1302 32.8926 37.0132C32.8459 36.4988 32.5668 35.7599 33.048 35.3934ZM21.9249 37.7175C22.5277 37.5908 22.7624 38.3643 22.7511 38.8354C22.7283 39.7797 22.3069 40.6004 22.1472 41.508C22.0736 41.9262 22.1213 42.3846 22.1594 42.8038C22.1932 43.1752 22.3324 43.6076 22.2681 43.9781C22.2478 44.0951 22.1786 44.3246 22.04 44.3458C21.8959 44.3678 21.8125 44.1262 21.7876 44.0186C21.7088 43.678 21.8512 43.2683 21.8824 42.9253C21.9271 42.4332 21.9882 41.9161 21.8847 41.427C21.7183 40.6402 21.3351 39.901 21.3312 39.0784C21.3288 38.5746 21.2973 37.8495 21.9249 37.7175ZM4.07256 42.3584C3.885 42.3624 3.6844 42.3859 3.51838 42.4835C2.32249 43.186 3.7491 45.1626 4.62673 44.0186C4.20635 44.0281 3.76445 43.5958 4.13422 43.182C4.47813 42.7972 5.00842 43.1593 5.11967 43.5732C5.25455 44.0751 4.95249 44.6203 4.58657 44.9367C4.07418 45.3798 2.96575 45.35 2.41022 44.9907C2.0513 44.7586 2.11766 44.3214 2.52878 44.2211C2.39405 44.0024 1.99743 44.0269 1.77669 44.0911C1.1117 44.2844 0.82701 45.0335 0.312085 45.4359V45.4764C0.565614 45.4764 0.854814 45.5162 1.10376 45.4652C1.33415 45.4179 1.48691 45.2677 1.73711 45.2757C2.45212 45.2987 3.15207 45.5205 3.87464 45.4242C4.61328 45.3258 5.30568 44.9483 6.05175 44.8401C6.66281 44.7514 7.46272 44.7395 7.6747 45.4764H10.5643V45.4359C10.1926 45.2116 9.86395 44.9134 9.41639 44.9095C9.588 44.5961 9.56507 44.193 9.21847 44.0186C8.88537 44.501 8.34383 44.6665 7.79345 44.6665V44.6261C8.26922 44.412 8.49297 43.7928 8.34762 43.2897C8.12301 43.4205 7.92894 43.5773 7.6747 43.6478C6.88891 43.8655 6.24289 43.744 5.61633 44.3831C5.8117 43.5113 5.95796 42.3969 5.02257 41.8886C4.59625 41.6569 3.58106 41.6197 4.07256 42.3584ZM16.4623 44.4236H16.4227C16.0845 43.6836 15.085 43.8185 14.4435 43.6583C14.1551 43.5863 13.9561 43.4042 13.6915 43.2897C13.6915 43.8032 13.7144 44.4391 14.2852 44.6261V44.6665C13.7199 44.6665 13.1824 44.4941 12.8206 44.0186C12.5172 44.2493 12.5004 44.5661 12.6227 44.9095C12.1628 44.9137 11.8762 45.2587 11.4748 45.4359V45.4764H13.3748C13.6499 45.4764 14.015 45.5413 14.28 45.4636C14.4458 45.4149 14.5147 45.1573 14.6432 45.0448C14.8634 44.8518 15.1899 44.7883 15.4727 44.7883C16.4214 44.7883 17.25 45.2721 18.1644 45.4182C18.8843 45.5332 19.5891 45.3037 20.302 45.2756C20.559 45.2654 20.7011 45.4113 20.9353 45.4642C21.1932 45.5225 21.5029 45.4764 21.7666 45.4764V45.4359C21.1904 45.0207 20.4185 43.4893 19.5103 44.1806C20.028 44.4442 19.9602 44.8965 19.4311 45.0941C18.8829 45.2987 18.016 45.3635 17.5311 44.9747C17.1736 44.6881 16.8095 44.1444 16.9187 43.6542C17.0193 43.2027 17.5757 42.7394 17.9493 43.213C18.2874 43.6415 17.8086 44.028 17.4123 44.0186C18.3701 45.1693 19.7519 43.1211 18.5207 42.4732C18.3583 42.3878 18.1861 42.3622 18.0061 42.3584C18.4351 41.4853 17.2781 41.6828 16.8582 42.0154C16.0758 42.6351 16.2736 43.5815 16.4623 44.4236ZM26.0416 42.3584C25.8617 42.3622 25.6894 42.3878 25.5271 42.4732C24.2922 43.123 25.6939 45.1802 26.6354 44.0186C26.2086 44.0285 25.7581 43.6001 26.1364 43.1769C26.5154 42.7529 27.0394 43.2288 27.1295 43.6542C27.2349 44.1523 26.8818 44.6819 26.5166 44.9747C25.999 45.3897 24.8692 45.3402 24.3437 44.9514C24.0107 44.7051 24.1754 44.2959 24.5374 44.2211C24.3873 43.9969 23.974 44.0255 23.7458 44.1039C23.1776 44.2989 22.655 44.991 22.3207 45.4764C22.5722 45.4764 22.8665 45.5198 23.1124 45.4642C23.3466 45.4113 23.4887 45.2654 23.7458 45.2756C24.4587 45.3037 25.1635 45.5332 25.8833 45.4182C26.7968 45.2722 27.6275 44.7883 28.575 44.7883C28.8578 44.7883 29.1844 44.8518 29.4046 45.0448C29.533 45.1573 29.602 45.4149 29.7678 45.4636C30.0328 45.5413 30.3978 45.4764 30.673 45.4764H32.573V45.4359C32.1715 45.2587 31.8849 44.9137 31.425 44.9095C31.5604 44.5501 31.5221 44.3364 31.3063 44.0186H31.2271C30.8774 44.4785 30.3535 44.6665 29.8021 44.6665V44.6261C30.3408 44.3637 30.3563 43.8268 30.3563 43.2897C30.0932 43.4095 29.8936 43.586 29.6042 43.6583C28.8614 43.8438 28.2206 43.7599 27.625 44.3426C27.7425 43.5254 27.9595 42.7253 27.2686 42.0792C26.865 41.7017 25.6208 41.4359 26.0416 42.3584ZM38.471 44.4236C37.8111 43.749 37.1659 43.8682 36.3335 43.6343C36.0956 43.5675 35.9166 43.3999 35.7001 43.2897C35.5567 43.7861 35.7872 44.4158 36.2543 44.6261V44.6665C35.7051 44.6665 35.163 44.4993 34.8293 44.0186C34.484 44.1924 34.4707 44.5959 34.6313 44.9095C34.193 44.9135 33.8484 45.2178 33.4834 45.4359V45.4764H35.3834C35.6548 45.4764 36.0247 45.5438 36.285 45.4636C36.4396 45.4159 36.5283 45.1488 36.6507 45.0396C36.8743 44.8405 37.1929 44.7883 37.4814 44.7883C38.4265 44.7883 39.2606 45.2846 40.1731 45.4186C40.8968 45.5249 41.5947 45.2987 42.3106 45.2757C42.5608 45.2677 42.7136 45.4179 42.944 45.4652C43.1929 45.5162 43.4821 45.4764 43.7356 45.4764V45.4359C43.2191 45.03 42.9417 44.286 42.271 44.0911C42.0503 44.0269 41.6537 44.0024 41.5189 44.2211C41.9425 44.3088 41.9933 44.7606 41.6375 44.9907C41.097 45.3403 40.0157 45.3804 39.5007 44.9689C39.1229 44.667 38.8139 44.1156 38.9274 43.6137C39.02 43.2039 39.512 42.7937 39.8825 43.1494C40.3027 43.5526 39.869 44.029 39.421 44.0186C40.2853 45.1453 41.729 43.2264 40.5294 42.4801C40.3609 42.3753 40.1671 42.36 39.9752 42.3584C40.4392 41.661 39.5468 41.6463 39.1043 41.853C38.1091 42.3179 38.1898 43.5391 38.471 44.4236Z" fill="#183361"/>
</g>
<defs>
<clipPath id="clip0_1009_46">
<rect width="44" height="45" fill="white" transform="translate(0 0.5)"/>
</clipPath>
</defs>
</svg>
